[
    "Common causes of a red eye include a burst blood vessel, an eye infection, an allergic reaction or dry eyes.",
    "Symptoms of reflux in babies include bringing up milk soon after feeding, coughing when feeding and not gaining weight.",
    "If a person is confused, they may not be able to think or speak clearly, they may not know where they are, and they may struggle to remember things.",
    "Common causes of swollen ankles, feet and legs include being overweight, pregnancy, eating too much salty food and standing or sitting for too long.",
    "",
    "Common causes of smelly pee include certain types of food, like asparagus or coffee, not drinking enough fluids and urinary tract infections (UTIs).",
    "Things that can help if you have sore or dry lips include drinking plenty of water and covering your lips with a scarf when it\u2019s cold.",
    "If you have a sore or white tongue, it can help to brush your tongue or use a tongue scraper and avoid hard, spicy, salty or hot food and drink.",
    "To soothe a sore throat, it can help to gargle with warm, salty water (not suitable for children), drink plenty of water, and eat cool or soft foods.",
    "Common causes of stomach ache include trapped wind, indigestion, constipation and food poisoning.",
    "Read about the causes of stopped periods and when to seek medical help.",
    "Stretch marks look like pink, red, brown, black, silver or purple lines across the skin. They usually start off darker and fade over time.",
    "Swollen glands feel like tender, painful lumps. You can get them on each side of your neck, under your chin, in your armpits and around your groin.",
    "If you have shoulder pain, it can help to do gentle shoulder exercises and take painkillers if needed. Do not completely stop using your shoulder.",
    "There are things you can do to help stop snoring, such as keeping a healthy weight, sleeping on your side, cutting down on alcohol and not smoking.",
    "A child pooing their pants is usually caused by constipation, where a large hard poo is stuck inside their bottom and softer poo leaks around it.",
    "Common causes of swollen arms or hands include staying in the same position for too long, a diet high in salt, pregnancy and certain medicines.",
    "You can treat smelly feet yourself by washing them at least once a day and keeping them dry, along with changing your socks and shoes every day.",
    "",
    "The main symptom of tailbone pain is pain at the base of your spine, near the top of your bottom. The pain is often worse when you\u2019re sitting down.",
    "Teeth grinding is usually caused by stress and anxiety. But it can also be related to sleep problems, taking certain medicines, smoking and alcohol.",
    "",
    "Tics are unintentional, fast and repetitive muscle movements. Find out how long they last, when to get medical advice and how they can be treated.",
    "Tinnitus can sound like ringing, buzzing, whooshing, humming, hissing, throbbing, music or singing. You may hear these sounds in your head or ears.",
    "Read about tremor, which is when you're not able to control shaking or trembling in part of your body.",
    "Twitches are usually caused by things like stress, anxiety, tiredness, caffeine or alcohol. A twitch can also be a side effect of some medicines.",
    "",
    "Toe pain can have lots of causes. You can usually ease the pain yourself but see a GP if it has not improved after treating it at home for 2 weeks.",
    "There are many causes of thumb pain. You can often ease the pain yourself. But see a GP if the pain does not improve.",
    "Many things can cause unintentional weight loss. Common causes are stress and digestion problems. Sometimes it can be something serious like cancer.",
    "Vaginal discharge is usually clear and does not have a strong smell. You might have an infection if your usual discharge changes appearance or smell.",
    "Symptoms of vaginal dryness include a sore and itchy vagina, pain during sex and needing to pee more than usual.",
    "Common causes of vomiting blood include gastritis and stomach ulcers. Less often it can be caused by medicines or cancer.",
    "Vertigo is when you feel like you or everything around you is spinning. It can also affect your balance.",
    "Common causes of watering eyes include smoke, an eye injury, something in your eyes, an allergy or an infection.",
    "A pharmacist can help if you have small, white worms called threadworms. They're common in the UK and can be treated with medicine from a pharmacy.",
    "There are many causes of wrist pain. You can often ease the pain yourself. But see a GP if the pain does not improve."
]