[
    {
        "id": 1,
        "name": "Anal pain",
        "description": "Lots of things can cause anal pain. Common causes include constipation, piles, and anal fissures.",
        "url": "https://api.nhs.uk/conditions/anal-pain/",
        "severity": 2,
        "rarity": 3,
        "location": "Butt",
        "related_loc_id": [
            316,
            320,
            348
        ],
        "related_med_id": [
            47
        ]
    },
    {
        "id": 2,
        "name": "Ankle pain",
        "description": "Ankle pain can have lots of causes. You can usually ease the pain yourself but see a GP if it has not improved after treating it at home for 2 weeks.",
        "url": "https://api.nhs.uk/conditions/foot-pain/ankle-pain/",
        "severity": 1,
        "rarity": 2,
        "location": "Legs",
        "related_loc_id": [
            151,
            206,
            306
        ],
        "related_med_id": [
            71
        ]
    },
    {
        "id": 3,
        "name": "Blood in semen",
        "description": "Blood in your semen can be red, pink or brown. Sometimes you might also have other symptoms such as blood in your pee or pain when peeing.",
        "url": "https://api.nhs.uk/conditions/blood-in-semen/",
        "severity": 3,
        "rarity": 4,
        "location": "Blood",
        "related_loc_id": [
            357,
            368,
            379
        ],
        "related_med_id": [
            19,
            78
        ]
    },
    {
        "id": 4,
        "name": "Blood in urine",
        "description": "",
        "url": "https://api.nhs.uk/conditions/blood-in-urine/",
        "severity": 3,
        "rarity": 4,
        "location": "Blood",
        "related_loc_id": [
            19,
            127,
            300
        ],
        "related_med_id": [
            54,
            80
        ]
    },
    {
        "id": 5,
        "name": "Breast pain",
        "description": "Breast pain is usually linked to periods. Sometimes it can be caused by a condition like mastitis or a medicine like the contraceptive pill.",
        "url": "https://api.nhs.uk/conditions/breast-pain/",
        "severity": 2,
        "rarity": 2,
        "location": "Chest",
        "related_loc_id": [
            25,
            30,
            282
        ],
        "related_med_id": [
            42,
            68
        ]
    },
    {
        "id": 6,
        "name": "Blue or grey skin or lips (cyanosis)",
        "description": "With cyanosis, your lips, tongue, gums, ears, skin under your nails or skin around your eyes turn blue or grey.",
        "url": "https://api.nhs.uk/conditions/blue-skin-or-lips-cyanosis/",
        "severity": 2,
        "rarity": 3,
        "location": "Mouth",
        "related_loc_id": [
            24,
            32,
            324
        ],
        "related_med_id": [
            49
        ]
    },
    {
        "id": 7,
        "name": "Blindness and vision loss",
        "description": "Information for people with vision loss including details of support organisations, plus advice about specialist equipment, home modifications and mobility.",
        "url": "https://api.nhs.uk/conditions/vision-loss/",
        "severity": 3,
        "rarity": 3,
        "location": "Eyes",
        "related_loc_id": [
            198,
            217,
            236
        ],
        "related_med_id": [
            56
        ]
    },
    {
        "id": 8,
        "name": "Back pain",
        "description": "Back pain can have many causes, including an injury like a strain. Sometimes conditions like sciatica or a slipped disc can cause back pain.",
        "url": "https://api.nhs.uk/conditions/back-pain/",
        "severity": 2,
        "rarity": 2,
        "location": "Back",
        "related_loc_id": [
            28,
            107,
            313
        ],
        "related_med_id": [
            7,
            77
        ]
    },
    {
        "id": 9,
        "name": "Bad breath",
        "description": "To avoid bad breath, it can help to brush your teeth and gums at least twice a day, clean your tongue once a day and use antibacterial mouthwash.",
        "url": "https://api.nhs.uk/conditions/bad-breath/",
        "severity": 1,
        "rarity": 2,
        "location": "Mouth",
        "related_loc_id": [
            33,
            95,
            185
        ],
        "related_med_id": [
            21
        ]
    },
    {
        "id": 10,
        "name": "Bedwetting in children",
        "description": "Things you can do to help with bedwetting include making sure your child goes to the toilet regularly and using waterproof covers on mattresses.",
        "url": "https://api.nhs.uk/conditions/bedwetting/",
        "severity": 1,
        "rarity": 2,
        "location": "Bladder",
        "related_loc_id": [
            23,
            54,
            161
        ],
        "related_med_id": [
            10,
            29
        ]
    },
    {
        "id": 11,
        "name": "Bleeding from the bottom (rectal bleeding)",
        "description": "Signs of bleeding from the bottom include blood on your toilet paper, blood on or in your poo, pink water in the toilet, or very dark, smelly poo.",
        "url": "https://api.nhs.uk/conditions/bleeding-from-the-bottom-rectal-bleeding/",
        "severity": 3,
        "rarity": 3,
        "location": "Butt",
        "related_loc_id": [
            131,
            310,
            371
        ],
        "related_med_id": [
            40
        ]
    },
    {
        "id": 12,
        "name": "Blushing",
        "description": "To stop yourself blushing, it can help to breathe deeply and try to relax. Keep cool by removing a layer of clothing and drinking water.",
        "url": "https://api.nhs.uk/conditions/blushing/",
        "severity": 1,
        "rarity": 2,
        "location": "Face",
        "related_loc_id": [
            5,
            332,
            373
        ],
        "related_med_id": [
            11
        ]
    },
    {
        "id": 13,
        "name": "Breast lumps",
        "description": "Find out about breast lumps. They can have a lot of different causes and most are harmless. But always see a GP if you have a lump in your breast or any unusual changes to your breasts.",
        "url": "https://api.nhs.uk/conditions/breast-lump/",
        "severity": 3,
        "rarity": 3,
        "location": "Chest",
        "related_loc_id": [
            118,
            311,
            364
        ],
        "related_med_id": [
            42,
            69
        ]
    },
    {
        "id": 14,
        "name": "Bulging eyes (exophthalmos)",
        "description": "If you have bulging eyes, you may notice they seem to stick out more than usual and you can see more of the whites of your eyes.",
        "url": "https://api.nhs.uk/conditions/bulging-eyes/",
        "severity": 3,
        "rarity": 4,
        "location": "Eyes",
        "related_loc_id": [
            26,
            271,
            392
        ],
        "related_med_id": [
            75
        ]
    },
    {
        "id": 15,
        "name": "Body odour (BO)",
        "description": "You can treat body odour yourself by washing with soap at least twice a day, shaving your armpits, and using antiperspirants and deodorants.",
        "url": "https://api.nhs.uk/conditions/body-odour-bo/",
        "severity": 1,
        "rarity": 2,
        "location": "FullBody",
        "related_loc_id": [
            11,
            117,
            393
        ],
        "related_med_id": [
            31,
            47
        ]
    },
    {
        "id": 16,
        "name": "Bloating",
        "description": "Symptoms of bloating include your tummy feeling full and bigger than usual, your tummy rumbling, tummy pain and farting more than usual.",
        "url": "https://api.nhs.uk/conditions/bloating/",
        "severity": 1,
        "rarity": 2,
        "location": "Stomach",
        "related_loc_id": [
            111,
            262,
            377
        ],
        "related_med_id": [
            61
        ]
    },
    {
        "id": 17,
        "name": "Chest pain",
        "description": "",
        "url": "https://api.nhs.uk/conditions/chest-pain/",
        "severity": 3,
        "rarity": 2,
        "location": "Chest",
        "related_loc_id": [
            62,
            211,
            241
        ],
        "related_med_id": [
            3,
            32
        ]
    },
    {
        "id": 18,
        "name": "Cough",
        "description": "You can treat a cough yourself. Rest and drink plenty of fluids. You could also try hot lemon and honey (not suitable for babies under 1 year old).",
        "url": "https://api.nhs.uk/conditions/cough/",
        "severity": 1,
        "rarity": 1,
        "location": "Mouth",
        "related_loc_id": [
            167,
            354,
            397
        ],
        "related_med_id": [
            79
        ]
    },
    {
        "id": 19,
        "name": "Coughing up blood (blood in phlegm)",
        "description": "You might cough up blood if you have a persistent or severe cough, or a chest infection, pneumonia or bronchitis.",
        "url": "https://api.nhs.uk/conditions/coughing-up-blood/",
        "severity": 3,
        "rarity": 3,
        "location": "Mouth",
        "related_loc_id": [
            50,
            144,
            272
        ],
        "related_med_id": [
            26
        ]
    },
    {
        "id": 20,
        "name": "Constipation",
        "description": "Symptoms of constipation include going for a poo fewer than 3 times in a week and finding it hard to poo.",
        "url": "https://api.nhs.uk/conditions/constipation/",
        "severity": 2,
        "rarity": 3,
        "location": "Butt",
        "related_loc_id": [
            31,
            79,
            285
        ],
        "related_med_id": [
            23
        ]
    },
    {
        "id": 21,
        "name": "Dizziness",
        "description": "Symptoms of dizziness include problems with balance, feeling lightheaded and feeling like everything is spinning.",
        "url": "https://api.nhs.uk/conditions/dizziness/",
        "severity": 2,
        "rarity": 3,
        "location": "Head",
        "related_loc_id": [
            4,
            165,
            168
        ],
        "related_med_id": [
            44
        ]
    },
    {
        "id": 22,
        "name": "Dry mouth",
        "description": "Read about dry mouth, including what causes it and things you can do to help ease it yourself.",
        "url": "https://api.nhs.uk/conditions/dry-mouth/",
        "severity": 1,
        "rarity": 2,
        "location": "Mouth",
        "related_loc_id": [
            132,
            184,
            248
        ],
        "related_med_id": [
            39
        ]
    },
    {
        "id": 23,
        "name": "Double vision",
        "description": "You may have double vision if you look at 1 object but see 2 images. Children may cover an eye with their hand or squint to see better.",
        "url": "https://api.nhs.uk/conditions/double-vision/",
        "severity": 2,
        "rarity": 3,
        "location": "Eyes",
        "related_loc_id": [
            150,
            260,
            367
        ],
        "related_med_id": [
            46
        ]
    },
    {
        "id": 24,
        "name": "Dry eyes",
        "description": "Having dry eyes can make your eyes feel itchy, gritty and sore. Your eyes may also look red and be more watery than usual.",
        "url": "https://api.nhs.uk/conditions/dry-eyes/",
        "severity": 1,
        "rarity": 2,
        "location": "Eyes",
        "related_loc_id": [
            65,
            80,
            237
        ],
        "related_med_id": [
            16
        ]
    },
    {
        "id": 25,
        "name": "Dysphagia (swallowing problems)",
        "description": "Dysphagia is the medical term for having difficulty swallowing.",
        "url": "https://api.nhs.uk/conditions/swallowing-problems-dysphagia/",
        "severity": 2,
        "rarity": 3,
        "location": "Mouth",
        "related_loc_id": [
            53,
            102,
            181
        ],
        "related_med_id": [
            10
        ]
    },
    {
        "id": 26,
        "name": "Diarrhoea and vomiting",
        "description": "Diarrhoea and vomiting can usually be treated at home. It's important to get plenty of rest and drink lots of fluids to avoid dehydration.",
        "url": "https://api.nhs.uk/conditions/diarrhoea-and-vomiting/",
        "severity": 2,
        "rarity": 2,
        "location": "Butt",
        "related_loc_id": [
            63,
            113,
            362
        ],
        "related_med_id": [
            37
        ]
    },
    {
        "id": 27,
        "name": "Earache",
        "description": "If you have earache, you may also have other symptoms, like a high temperature or hearing loss. Earache can be harder to spot in young children.",
        "url": "https://api.nhs.uk/conditions/earache/",
        "severity": 1,
        "rarity": 3,
        "location": "Ears",
        "related_loc_id": [
            15,
            225,
            250
        ],
        "related_med_id": [
            69
        ]
    },
    {
        "id": 28,
        "name": "Elbow and arm pain",
        "description": "Read about the common causes of arm pain, including sprains, tennis or golfer's elbow and bursitis, plus simple self care techniques, such as ice packs and painkillers.",
        "url": "https://api.nhs.uk/conditions/elbow-and-arm-pain/",
        "severity": 1,
        "rarity": 2,
        "location": "Arms",
        "related_loc_id": [
            154,
            338,
            398
        ],
        "related_med_id": [
            43,
            78
        ]
    },
    {
        "id": 29,
        "name": "Excessive daytime sleepiness (hypersomnia)",
        "description": "Symptoms of excessive daytime sleepiness can include falling asleep during the day or having regular naps and not feeling refreshed afterwards.",
        "url": "https://api.nhs.uk/conditions/excessive-daytime-sleepiness-hypersomnia/",
        "severity": 2,
        "rarity": 3,
        "location": "FullBody",
        "related_loc_id": [
            21,
            101,
            136
        ],
        "related_med_id": [
            16,
            22
        ]
    },
    {
        "id": 30,
        "name": "Eyelid problems",
        "description": "Eyelid problems are not usually serious. It's fairly common to have a lump, or itchy, flaky or sticky eyelids that clear up by themselves.",
        "url": "https://api.nhs.uk/conditions/eyelid-problems/",
        "severity": 1,
        "rarity": 3,
        "location": "Eyes",
        "related_loc_id": [
            233,
            273,
            369
        ],
        "related_med_id": [
            53
        ]
    },
    {
        "id": 31,
        "name": "Excessive thirst",
        "description": "Find out about excessive thirst, including what might be causing it, when to see a GP and the difference between dry mouth and excessive thirst.",
        "url": "https://api.nhs.uk/conditions/thirst/",
        "severity": 1,
        "rarity": 3,
        "location": "Mouth",
        "related_loc_id": [
            129,
            194,
            299
        ],
        "related_med_id": [
            51
        ]
    },
    {
        "id": 32,
        "name": "Erectile dysfunction (impotence)",
        "description": "The main symptom of erectile dysfunction is not being able to get or keep an erection.",
        "url": "https://api.nhs.uk/conditions/erection-problems-erectile-dysfunction/",
        "severity": 2,
        "rarity": 3,
        "location": "Genitals",
        "related_loc_id": [
            85,
            159,
            288
        ],
        "related_med_id": [
            48
        ]
    },
    {
        "id": 33,
        "name": "Excessive sweating (hyperhidrosis)",
        "description": "Find out about possible causes and treatments for excessive sweating (hyperhydrosis).",
        "url": "https://api.nhs.uk/conditions/excessive-sweating-hyperhidrosis/",
        "severity": 1,
        "rarity": 2,
        "location": "FullBody",
        "related_loc_id": [
            71,
            89,
            209
        ],
        "related_med_id": [
            35,
            81
        ]
    },
    {
        "id": 34,
        "name": "Excessive hair growth (hirsutism)",
        "description": "Hirsutism is linked to changes in hormones. The most common cause is a condition called polycystic ovary syndrome (PCOS).",
        "url": "https://api.nhs.uk/conditions/hirsutism/",
        "severity": 1,
        "rarity": 3,
        "location": "Head",
        "related_loc_id": [
            204,
            345,
            363
        ],
        "related_med_id": [
            28
        ]
    },
    {
        "id": 35,
        "name": "Foot drop",
        "description": "Common causes of foot drop include sports injuries, a slipped disc in the spine, and crossing your legs, kneeling or squatting a lot.",
        "url": "https://api.nhs.uk/conditions/foot-drop/",
        "severity": 1,
        "rarity": 3,
        "location": "Feet",
        "related_loc_id": [
            87,
            240,
            374
        ],
        "related_med_id": [
            68
        ]
    },
    {
        "id": 36,
        "name": "Fainting",
        "description": "Fainting is when you pass out for a short time. It's not usually a sign of something serious, but if it happens you should see a GP.",
        "url": "https://api.nhs.uk/conditions/fainting/",
        "severity": 3,
        "rarity": 3,
        "location": "FullBody",
        "related_loc_id": [
            56,
            202,
            358
        ],
        "related_med_id": [
            31,
            65
        ]
    },
    {
        "id": 37,
        "name": "Farting (flatulence)",
        "description": "It's normal to fart several times a day. It's only a problem if you notice a change, such as farting more than usual, or it's affecting your life.",
        "url": "https://api.nhs.uk/conditions/flatulence/",
        "severity": 1,
        "rarity": 1,
        "location": "Butt",
        "related_loc_id": [
            66,
            268,
            331
        ],
        "related_med_id": [
            79
        ]
    },
    {
        "id": 38,
        "name": "Floaters and flashes in the eyes",
        "description": "Floaters are small shapes in your vision, such as dots and lines. Flashes are when you see sudden, unexplained flashes of light.",
        "url": "https://api.nhs.uk/conditions/floaters-and-flashes-in-the-eyes/",
        "severity": 1,
        "rarity": 2,
        "location": "Eyes",
        "related_loc_id": [
            9,
            99,
            286
        ],
        "related_med_id": [
            39
        ]
    },
    {
        "id": 39,
        "name": "Feeling sick (nausea)",
        "description": "If you feel sick, things that can help include getting plenty of fresh air, drinking cold drinks or ginger tea and avoiding large meals or fried food.",
        "url": "https://api.nhs.uk/conditions/feeling-sick-nausea/",
        "severity": 1,
        "rarity": 2,
        "location": "FullBody",
        "related_loc_id": [
            93,
            119,
            287
        ],
        "related_med_id": [
            22,
            56
        ]
    },
    {
        "id": 40,
        "name": "Finger pain",
        "description": "There are many causes of finger pain. You can often ease the pain yourself. But see a GP if the pain does not improve.",
        "url": "https://api.nhs.uk/conditions/hand-pain/finger-pain/",
        "severity": 1,
        "rarity": 1,
        "location": "Hands",
        "related_loc_id": [
            59,
            122,
            139
        ],
        "related_med_id": [
            27,
            68
        ]
    },
    {
        "id": 41,
        "name": "High temperature (fever) in children",
        "description": "A fever is a high temperature of 38C or more. A child with a fever may also be hot and sweaty.",
        "url": "https://api.nhs.uk/conditions/fever-in-children/",
        "severity": 1,
        "rarity": 2,
        "location": "Head",
        "related_loc_id": [
            3,
            266,
            318
        ],
        "related_med_id": [
            66
        ]
    },
    {
        "id": 42,
        "name": "Hallucinations and hearing voices",
        "description": "Hallucinations are where you hear, see, smell, taste or feel things that appear to be real but only exist in your mind.",
        "url": "https://api.nhs.uk/conditions/hallucinations/",
        "severity": 3,
        "rarity": 3,
        "location": "Head",
        "related_loc_id": [
            69,
            135,
            149
        ],
        "related_med_id": [
            38
        ]
    },
    {
        "id": 43,
        "name": "Heart palpitations",
        "description": "Heart palpitations can feel like your heartbeat is very fast, irregular, pounding or fluttering. You may feel them in your chest, neck or throat.",
        "url": "https://api.nhs.uk/conditions/heart-palpitations/",
        "severity": 3,
        "rarity": 4,
        "location": "Chest",
        "related_loc_id": [
            243,
            293,
            361
        ],
        "related_med_id": [
            36,
            41
        ]
    },
    {
        "id": 44,
        "name": "Hip pain in adults",
        "description": "Lots of things can cause hip pain. Common causes include a sprain or strain and arthritis. Sometimes it can be something serious like a hip fracture.",
        "url": "https://api.nhs.uk/conditions/hip-pain/",
        "severity": 1,
        "rarity": 2,
        "location": "Hips",
        "related_loc_id": [
            76,
            355,
            360
        ],
        "related_med_id": [
            25
        ]
    },
    {
        "id": 45,
        "name": "Hip pain in children (irritable hip)",
        "description": "The most common cause of hip pain in children is a condition called irritable hip. Less common causes include an infection or a broken bone.",
        "url": "https://api.nhs.uk/conditions/hip-pain-children-irritable-hip/",
        "severity": 1,
        "rarity": 3,
        "location": "Hips",
        "related_loc_id": [
            29,
            126,
            230
        ],
        "related_med_id": [
            37
        ]
    },
    {
        "id": 46,
        "name": "Hair loss",
        "description": "Hair loss can happen naturally or be caused by a medical condition. There are treatments that may help if your hair loss is upsetting you.",
        "url": "https://api.nhs.uk/conditions/hair-loss/",
        "severity": 1,
        "rarity": 3,
        "location": "Head",
        "related_loc_id": [
            215,
            220,
            301
        ],
        "related_med_id": [
            71
        ]
    },
    {
        "id": 47,
        "name": "Hearing loss",
        "description": "Hearing loss can be hard to spot at first. Common signs are difficulty hearing other people clearly and needing the TV to be loud.",
        "url": "https://api.nhs.uk/conditions/hearing-loss/",
        "severity": 2,
        "rarity": 3,
        "location": "Ears",
        "related_loc_id": [
            251,
            256,
            314
        ],
        "related_med_id": [
            34
        ]
    },
    {
        "id": 48,
        "name": "Heartburn and acid reflux",
        "description": "The main symptoms of acid reflux are a burning feeling in the middle of your chest (heartburn) and an unpleasant sour taste in your mouth.",
        "url": "https://api.nhs.uk/conditions/heartburn-and-acid-reflux/",
        "severity": 2,
        "rarity": 3,
        "location": "Chest",
        "related_loc_id": [
            37,
            261,
            400
        ],
        "related_med_id": [
            42,
            79
        ]
    },
    {
        "id": 49,
        "name": "Heavy periods",
        "description": "The main symptoms of heavy periods are losing a lot of blood during your period or your periods lasting longer than 7 days.",
        "url": "https://api.nhs.uk/conditions/heavy-periods/",
        "severity": 2,
        "rarity": 3,
        "location": "Genitals",
        "related_loc_id": [
            20,
            176,
            283
        ],
        "related_med_id": [
            15
        ]
    },
    {
        "id": 50,
        "name": "Hiccups",
        "description": "Read about things you can do yourself to stop or prevent hiccups.",
        "url": "https://api.nhs.uk/conditions/hiccups/",
        "severity": 1,
        "rarity": 1,
        "location": "Mouth",
        "related_loc_id": [
            146,
            252,
            290
        ],
        "related_med_id": [
            66
        ]
    },
    {
        "id": 51,
        "name": "Headaches",
        "description": "To help ease a headache, drink plenty of water, try to rest and relax, and take paracetamol and ibuprofen if you need to.",
        "url": "https://api.nhs.uk/conditions/headaches/",
        "severity": 1,
        "rarity": 1,
        "location": "Head",
        "related_loc_id": [
            40,
            182,
            359
        ],
        "related_med_id": [
            80
        ]
    },
    {
        "id": 52,
        "name": "High temperature (fever) in adults",
        "description": "Symptoms of a high temperature can include your chest or back feeling hot, sweating and shivering (chills).",
        "url": "https://api.nhs.uk/conditions/fever-in-adults/",
        "severity": 1,
        "rarity": 1,
        "location": "FullBody",
        "related_loc_id": [
            263,
            307,
            366
        ],
        "related_med_id": [
            27,
            80
        ]
    },
    {
        "id": 53,
        "name": "Heel pain",
        "description": "Heel pain is very common, especially if you exercise regularly. You can usually ease the pain yourself but see a GP if the pain does not improve.",
        "url": "https://api.nhs.uk/conditions/foot-pain/heel-pain/",
        "severity": 1,
        "rarity": 2,
        "location": "Feet",
        "related_loc_id": [
            39,
            82,
            207
        ],
        "related_med_id": [
            61
        ]
    },
    {
        "id": 54,
        "name": "Indigestion",
        "description": "Symptoms of indigestion can include heartburn, bloating, feeling sick, burping and bringing up food into your mouth.",
        "url": "https://api.nhs.uk/conditions/indigestion/",
        "severity": 1,
        "rarity": 2,
        "location": "Stomach",
        "related_loc_id": [
            58,
            228,
            321
        ],
        "related_med_id": [
            11
        ]
    },
    {
        "id": 55,
        "name": "Irregular periods",
        "description": "You have irregular periods if the length of your menstrual cycle (the gap between your periods starting) keeps changing.Your periods may come early or late.",
        "url": "https://api.nhs.uk/conditions/irregular-periods/",
        "severity": 1,
        "rarity": 3,
        "location": "Genitals",
        "related_loc_id": [
            16,
            232,
            353
        ],
        "related_med_id": [
            12
        ]
    },
    {
        "id": 56,
        "name": "Itchy bottom",
        "description": "To ease an itchy bottom, it may help to have cool showers or baths, wash and dry your bottom (anus) after pooing and wear loose cotton underwear.",
        "url": "https://api.nhs.uk/conditions/itchy-anus/",
        "severity": 1,
        "rarity": 3,
        "location": "Feet",
        "related_loc_id": [
            239,
            265,
            340
        ],
        "related_med_id": [
            39
        ]
    },
    {
        "id": 57,
        "name": "Itchy skin",
        "description": "Itchy skin is not usually a sign of anything serious. You can often treat it yourself and it will usually go away after a few weeks.",
        "url": "https://api.nhs.uk/conditions/itchy-skin/",
        "severity": 1,
        "rarity": 2,
        "location": "FullBody",
        "related_loc_id": [
            94,
            148,
            350
        ],
        "related_med_id": [
            6,
            26
        ]
    },
    {
        "id": 58,
        "name": "Joint pain",
        "description": "Joint pain can affect any of your joints, including knees, hips and toes. You might feel pain in 1 joint or more than 1 joint at the same time.",
        "url": "https://api.nhs.uk/conditions/joint-pain/",
        "severity": 1,
        "rarity": 2,
        "location": "FullBody",
        "related_loc_id": [
            84,
            183,
            212
        ],
        "related_med_id": [
            29,
            76
        ]
    },
    {
        "id": 59,
        "name": "Jaundice",
        "description": "Find out about jaundice, where the skin and the whites of the eyes turn yellow. It's caused by a build-up of a substance called bilirubin.",
        "url": "https://api.nhs.uk/conditions/jaundice/",
        "severity": 2,
        "rarity": 3,
        "location": "Eyes",
        "related_loc_id": [
            42,
            166,
            323
        ],
        "related_med_id": [
            79
        ]
    },
    {
        "id": 60,
        "name": "Knee pain",
        "description": "To ease knee pain and swelling, avoid putting weight on your knee, use an ice pack for up to 20 minutes every 2 to 3 hours, and take painkillers.",
        "url": "https://api.nhs.uk/conditions/knee-pain/",
        "severity": 1,
        "rarity": 2,
        "location": "Legs",
        "related_loc_id": [
            124,
            125,
            137
        ],
        "related_med_id": [
            16
        ]
    },
    {
        "id": 61,
        "name": "Limping in children",
        "description": "Common causes of limping in children are a sprain or strain, or a broken bone. But a limp without an obvious cause should always be checked by a GP.",
        "url": "https://api.nhs.uk/conditions/limp-in-children/",
        "severity": 1,
        "rarity": 2,
        "location": "Legs",
        "related_loc_id": [
            6,
            214,
            349
        ],
        "related_med_id": [
            72
        ]
    },
    {
        "id": 62,
        "name": "Low sex drive (loss of libido)",
        "description": "Common causes of a low sex drive include relationship problems, sexual problems and stress, anxiety or depression.",
        "url": "https://api.nhs.uk/conditions/loss-of-libido/",
        "severity": 1,
        "rarity": 3,
        "location": "Genitals",
        "related_loc_id": [
            205,
            352,
            384
        ],
        "related_med_id": [
            4
        ]
    },
    {
        "id": 63,
        "name": "Lumps",
        "description": "Lumps and growths on the skin can be soft or hard to touch. Some can move around and they can vary in size.",
        "url": "https://api.nhs.uk/conditions/lumps/",
        "severity": 3,
        "rarity": 3,
        "location": "FullBody",
        "related_loc_id": [
            140,
            152,
            208
        ],
        "related_med_id": [
            28,
            73
        ]
    },
    {
        "id": 64,
        "name": "Leg cramps",
        "description": "The main symptom of leg cramps is a sudden pain in a leg muscle that lasts a short time before going away.",
        "url": "https://api.nhs.uk/conditions/leg-cramps/",
        "severity": 1,
        "rarity": 2,
        "location": "Legs",
        "related_loc_id": [
            100,
            103,
            395
        ],
        "related_med_id": [
            53
        ]
    },
    {
        "id": 65,
        "name": "Lost or changed sense of smell",
        "description": "A change in your sense of smell can be unpleasant and affect how things taste. But it is not usually serious and may get better in a few weeks or months.",
        "url": "https://api.nhs.uk/conditions/lost-or-changed-sense-smell/",
        "severity": 2,
        "rarity": 3,
        "location": "Nose",
        "related_loc_id": [
            55,
            201,
            382
        ],
        "related_med_id": [
            25
        ]
    },
    {
        "id": 66,
        "name": "Metallic taste",
        "description": "Common causes of metallic taste include gum disease, certain medicines, cancer treatments, and colds, sinus infections and other airway problems.",
        "url": "https://api.nhs.uk/conditions/metallic-taste/",
        "severity": 2,
        "rarity": 3,
        "location": "Mouth",
        "related_loc_id": [
            44,
            70,
            334
        ],
        "related_med_id": [
            53
        ]
    },
    {
        "id": 67,
        "name": "Mouth ulcers",
        "description": "Mouth ulcers usually heal within 2 weeks. To help ease the pain and speed up the healing process, avoid spicy, salty or crunchy foods.",
        "url": "https://api.nhs.uk/conditions/mouth-ulcers/",
        "severity": 2,
        "rarity": 3,
        "location": "Mouth",
        "related_loc_id": [
            142,
            160,
            365
        ],
        "related_med_id": [
            32
        ]
    },
    {
        "id": 68,
        "name": "Memory loss (amnesia)",
        "description": "",
        "url": "https://api.nhs.uk/conditions/memory-loss-amnesia/",
        "severity": 3,
        "rarity": 4,
        "location": "Head",
        "related_loc_id": [
            97,
            221,
            227
        ],
        "related_med_id": [
            11
        ]
    },
    {
        "id": 69,
        "name": "Nail problems",
        "description": "Find out about different nail problems, including brittle or crumbly nails, thickened, overgrown nails, or changes in nail colour.",
        "url": "https://api.nhs.uk/conditions/nail-problems/",
        "severity": 1,
        "rarity": 3,
        "location": "Hands",
        "related_loc_id": [
            337,
            378,
            387
        ],
        "related_med_id": [
            31,
            60
        ]
    },
    {
        "id": 70,
        "name": "Neck pain",
        "description": "You can ease neck pain by taking paracetamol or ibuprofen, using a firm pillow, putting heat or cold packs on your neck and doing neck exercises.",
        "url": "https://api.nhs.uk/conditions/neck-pain-and-stiff-neck/",
        "severity": 2,
        "rarity": 2,
        "location": "Neck",
        "related_loc_id": [
            41,
            81,
            179
        ],
        "related_med_id": [
            61
        ]
    },
    {
        "id": 71,
        "name": "Night sweats",
        "description": "Night sweats are when you sweat so much that your night clothes and bedding get soaking wet.",
        "url": "https://api.nhs.uk/conditions/night-sweats/",
        "severity": 2,
        "rarity": 2,
        "location": "FullBody",
        "related_loc_id": [
            133,
            278,
            284
        ],
        "related_med_id": [
            24,
            30
        ]
    },
    {
        "id": 72,
        "name": "Nipple discharge",
        "description": "Read about nipple discharge, including what can cause it and when to see a GP. It's usually nothing serious, but sometimes it's a good idea to get it checked.",
        "url": "https://api.nhs.uk/conditions/nipple-discharge/",
        "severity": 2,
        "rarity": 3,
        "location": "Chest",
        "related_loc_id": [
            180,
            341,
            396
        ],
        "related_med_id": [
            12,
            36
        ]
    },
    {
        "id": 73,
        "name": "Ovulation pain",
        "description": "Find out about ovulation pain including how to treat it, it's affect on your fertility, and when you need to see a doctor.",
        "url": "https://api.nhs.uk/conditions/ovulation-pain/",
        "severity": 2,
        "rarity": 3,
        "location": "Genitals",
        "related_loc_id": [
            216,
            257,
            312
        ],
        "related_med_id": [
            50
        ]
    },
    {
        "id": 74,
        "name": "Pelvic pain",
        "description": "Pelvic pain is felt in your lower tummy. The pain can vary from sharp and stabbing to dull or throbbing.",
        "url": "https://api.nhs.uk/conditions/pelvic-pain/",
        "severity": 2,
        "rarity": 3,
        "location": "Genitals",
        "related_loc_id": [
            74,
            303,
            305
        ],
        "related_med_id": [
            18
        ]
    },
    {
        "id": 75,
        "name": "Period pain",
        "description": "Read about period pain, including symptoms, when to see your GP, causes, diagnosing underlying conditions, and treatment.",
        "url": "https://api.nhs.uk/conditions/period-pain/",
        "severity": 2,
        "rarity": 3,
        "location": "Genitals",
        "related_loc_id": [
            36,
            328,
            344
        ],
        "related_med_id": [
            84
        ]
    },
    {
        "id": 76,
        "name": "Pins and needles",
        "description": "Pins and needles is pricking, tingling or numbness on the skin. It often affects your arms or legs when the blood supply to the nerves is cut off.",
        "url": "https://api.nhs.uk/conditions/pins-and-needles/",
        "severity": 2,
        "rarity": 3,
        "location": "FullBody",
        "related_loc_id": [
            98,
            156,
            203
        ],
        "related_med_id": [
            35,
            48
        ]
    },
    {
        "id": 77,
        "name": "Postmenopausal bleeding",
        "description": "",
        "url": "https://api.nhs.uk/conditions/post-menopausal-bleeding/",
        "severity": 2,
        "rarity": 3,
        "location": "Blood",
        "related_loc_id": [
            13,
            213,
            356
        ],
        "related_med_id": [
            26,
            73
        ]
    },
    {
        "id": 78,
        "name": "Paralysis",
        "description": "Paralysis is the loss of the ability to move some or all of your body. It can have lots of different causes, some of which can be serious. Depending on the cause, it may be temporary or permanent.",
        "url": "https://api.nhs.uk/conditions/paralysis/",
        "severity": 3,
        "rarity": 3,
        "location": "FullBody",
        "related_loc_id": [
            68,
            130,
            375
        ],
        "related_med_id": [
            29,
            70
        ]
    },
    {
        "id": 79,
        "name": "Priapism (painful erections)",
        "description": "A persistent, often painful erection. If it lasts for more than 2 hours, go to A&E to prevent permanent damage.",
        "url": "https://api.nhs.uk/conditions/priapism-painful-erections/",
        "severity": 3,
        "rarity": 3,
        "location": "Genitals",
        "related_loc_id": [
            309,
            315,
            326
        ],
        "related_med_id": [
            8
        ]
    },
    {
        "id": 80,
        "name": "Pain in the top of the foot",
        "description": "Pain in the top of your foot will often get better in a few weeks. See a GP if it does not improve.",
        "url": "https://api.nhs.uk/conditions/foot-pain/pain-in-the-top-of-the-foot/",
        "severity": 1,
        "rarity": 3,
        "location": "Feet",
        "related_loc_id": [
            96,
            195,
            291
        ],
        "related_med_id": [
            48
        ]
    },
    {
        "id": 81,
        "name": "Pain in the bottom of the foot",
        "description": "Pain in the bottom of your foot (ball, arch or sole) will often get better in a few weeks. See a GP if it does not improve.",
        "url": "https://api.nhs.uk/conditions/foot-pain/pain-in-the-bottom-of-the-foot/",
        "severity": 1,
        "rarity": 3,
        "location": "Feet",
        "related_loc_id": [
            27,
            173,
            190
        ],
        "related_med_id": [
            47
        ]
    },
    {
        "id": 82,
        "name": "Pain in the ball of the foot",
        "description": "Pain in the ball of your foot is known as metatarsalgia. You can usually ease the pain yourself. But see a GP if it does not improve.",
        "url": "https://api.nhs.uk/conditions/foot-pain/pain-in-the-ball-of-the-foot/",
        "severity": 1,
        "rarity": 3,
        "location": "Feet",
        "related_loc_id": [
            34,
            112,
            178
        ],
        "related_med_id": [
            72
        ]
    },
    {
        "id": 83,
        "name": "Pain in the palm of the hand",
        "description": "There are many causes of pain in the palm of your hand. You can often ease the pain yourself. But see a GP if the pain does not improve.",
        "url": "https://api.nhs.uk/conditions/hand-pain/pain-in-the-palm-of-the-hand/",
        "severity": 1,
        "rarity": 2,
        "location": "Hands",
        "related_loc_id": [
            188,
            226,
            259
        ],
        "related_med_id": [
            15,
            62
        ]
    },
    {
        "id": 84,
        "name": "Pain in the back of the hand",
        "description": "Pain in the back of the hand can have many causes. See a GP if the pain has not improved after treating it at home for 2 weeks.",
        "url": "https://api.nhs.uk/conditions/hand-pain/pain-in-the-back-of-the-hand/",
        "severity": 1,
        "rarity": 2,
        "location": "Hands",
        "related_loc_id": [
            170,
            193,
            231
        ],
        "related_med_id": [
            29,
            41
        ]
    },
    {
        "id": 85,
        "name": "Psychosis",
        "description": "Psychosis is when people lose some contact with reality. This might involve seeing or hearing things that other people cannot see or hear (hallucinations) and believing things that are not actually true (delusions).",
        "url": "https://www.nhs.ukhttps://api.nhs.uk/conditions/psychosis/",
        "severity": 3,
        "rarity": 4,
        "location": "Head",
        "related_loc_id": [
            2,
            49,
            277
        ],
        "related_med_id": [
            68
        ]
    },
    {
        "id": 86,
        "name": "Red eye",
        "description": "Common causes of a red eye include a burst blood vessel, an eye infection, an allergic reaction or dry eyes.",
        "url": "https://api.nhs.uk/conditions/red-eye/",
        "severity": 1,
        "rarity": 3,
        "location": "Eyes",
        "related_loc_id": [
            18,
            158,
            164
        ],
        "related_med_id": [
            48
        ]
    },
    {
        "id": 87,
        "name": "Reflux in babies",
        "description": "Symptoms of reflux in babies include bringing up milk soon after feeding, coughing when feeding and not gaining weight.",
        "url": "https://api.nhs.uk/conditions/reflux-in-babies/",
        "severity": 1,
        "rarity": 1,
        "location": "Mouth",
        "related_loc_id": [
            281,
            335,
            339
        ],
        "related_med_id": [
            40
        ]
    },
    {
        "id": 88,
        "name": "Sudden confusion (delirium)",
        "description": "If a person is confused, they may not be able to think or speak clearly, they may not know where they are, and they may struggle to remember things.",
        "url": "https://api.nhs.uk/conditions/confusion/",
        "severity": 2,
        "rarity": 3,
        "location": "Head",
        "related_loc_id": [
            17,
            246,
            289
        ],
        "related_med_id": [
            32
        ]
    },
    {
        "id": 89,
        "name": "Swollen ankles, feet and legs (oedema)",
        "description": "Common causes of swollen ankles, feet and legs include being overweight, pregnancy, eating too much salty food and standing or sitting for too long.",
        "url": "https://api.nhs.uk/conditions/oedema/",
        "severity": 1,
        "rarity": 3,
        "location": "Legs",
        "related_loc_id": [
            43,
            104,
            187
        ],
        "related_med_id": [
            37
        ]
    },
    {
        "id": 90,
        "name": "Shortness of breath",
        "description": "",
        "url": "https://api.nhs.uk/conditions/shortness-of-breath/",
        "severity": 2,
        "rarity": 2,
        "location": "Mouth",
        "related_loc_id": [
            48,
            296,
            302
        ],
        "related_med_id": [
            25
        ]
    },
    {
        "id": 91,
        "name": "Smelly urine",
        "description": "Common causes of smelly pee include certain types of food, like asparagus or coffee, not drinking enough fluids and urinary tract infections (UTIs).",
        "url": "https://api.nhs.uk/conditions/smelly-urine/",
        "severity": 1,
        "rarity": 3,
        "location": "Genitals",
        "related_loc_id": [
            88,
            138,
            163
        ],
        "related_med_id": [
            79
        ]
    },
    {
        "id": 92,
        "name": "Sore or dry lips",
        "description": "Things that can help if you have sore or dry lips include drinking plenty of water and covering your lips with a scarf when it\u2019s cold.",
        "url": "https://api.nhs.uk/conditions/sore-or-dry-lips/",
        "severity": 1,
        "rarity": 2,
        "location": "Mouth",
        "related_loc_id": [
            115,
            325,
            389
        ],
        "related_med_id": [
            60
        ]
    },
    {
        "id": 93,
        "name": "Sore or white tongue",
        "description": "If you have a sore or white tongue, it can help to brush your tongue or use a tongue scraper and avoid hard, spicy, salty or hot food and drink.",
        "url": "https://api.nhs.uk/conditions/sore-or-white-tongue/",
        "severity": 1,
        "rarity": 3,
        "location": "Mouth",
        "related_loc_id": [
            8,
            45,
            83
        ],
        "related_med_id": [
            30
        ]
    },
    {
        "id": 94,
        "name": "Sore throat",
        "description": "To soothe a sore throat, it can help to gargle with warm, salty water (not suitable for children), drink plenty of water, and eat cool or soft foods.",
        "url": "https://api.nhs.uk/conditions/sore-throat/",
        "severity": 1,
        "rarity": 1,
        "location": "Mouth",
        "related_loc_id": [
            197,
            346,
            390
        ],
        "related_med_id": [
            5
        ]
    },
    {
        "id": 95,
        "name": "Stomach ache",
        "description": "Common causes of stomach ache include trapped wind, indigestion, constipation and food poisoning.",
        "url": "https://api.nhs.uk/conditions/stomach-ache/",
        "severity": 1,
        "rarity": 1,
        "location": "Stomach",
        "related_loc_id": [
            47,
            175,
            317
        ],
        "related_med_id": [
            18
        ]
    },
    {
        "id": 96,
        "name": "Stopped or missed periods",
        "description": "Read about the causes of stopped periods and when to seek medical help.",
        "url": "https://api.nhs.uk/conditions/stopped-or-missed-periods/",
        "severity": 1,
        "rarity": 2,
        "location": "Genitals",
        "related_loc_id": [
            192,
            380,
            385
        ],
        "related_med_id": [
            80
        ]
    },
    {
        "id": 97,
        "name": "Stretch marks",
        "description": "Stretch marks look like pink, red, brown, black, silver or purple lines across the skin. They usually start off darker and fade over time.",
        "url": "https://api.nhs.uk/conditions/stretch-marks/",
        "severity": 1,
        "rarity": 1,
        "location": "Stomach",
        "related_loc_id": [
            10,
            224,
            381
        ],
        "related_med_id": [
            71
        ]
    },
    {
        "id": 98,
        "name": "Swollen glands",
        "description": "Swollen glands feel like tender, painful lumps. You can get them on each side of your neck, under your chin, in your armpits and around your groin.",
        "url": "https://api.nhs.uk/conditions/swollen-glands/",
        "severity": 2,
        "rarity": 3,
        "location": "FullBody",
        "related_loc_id": [
            22,
            223,
            242
        ],
        "related_med_id": [
            25,
            35
        ]
    },
    {
        "id": 99,
        "name": "Shoulder pain",
        "description": "If you have shoulder pain, it can help to do gentle shoulder exercises and take painkillers if needed. Do not completely stop using your shoulder.",
        "url": "https://api.nhs.uk/conditions/shoulder-pain/",
        "severity": 1,
        "rarity": 2,
        "location": "Arms",
        "related_loc_id": [
            92,
            351,
            394
        ],
        "related_med_id": [
            28,
            59
        ]
    },
    {
        "id": 100,
        "name": "Snoring",
        "description": "There are things you can do to help stop snoring, such as keeping a healthy weight, sleeping on your side, cutting down on alcohol and not smoking.",
        "url": "https://api.nhs.uk/conditions/snoring/",
        "severity": 1,
        "rarity": 1,
        "location": "Nose",
        "related_loc_id": [
            108,
            245,
            343
        ],
        "related_med_id": [
            67
        ]
    },
    {
        "id": 101,
        "name": "Soiling (child pooing their pants)",
        "description": "A child pooing their pants is usually caused by constipation, where a large hard poo is stuck inside their bottom and softer poo leaks around it.",
        "url": "https://api.nhs.uk/conditions/soiling-child-pooing-their-pants/",
        "severity": 1,
        "rarity": 1,
        "location": "Genitals",
        "related_loc_id": [
            114,
            177,
            218
        ],
        "related_med_id": [
            67
        ]
    },
    {
        "id": 102,
        "name": "Swollen arms and hands (oedema)",
        "description": "Common causes of swollen arms or hands include staying in the same position for too long, a diet high in salt, pregnancy and certain medicines.",
        "url": "https://api.nhs.uk/conditions/swollen-arms-and-hands-oedema/",
        "severity": 2,
        "rarity": 3,
        "location": "Arms",
        "related_loc_id": [
            155,
            199,
            235
        ],
        "related_med_id": [
            43,
            55
        ]
    },
    {
        "id": 103,
        "name": "Smelly feet",
        "description": "You can treat smelly feet yourself by washing them at least once a day and keeping them dry, along with changing your socks and shoes every day.",
        "url": "https://api.nhs.uk/conditions/smelly-feet/",
        "severity": 1,
        "rarity": 2,
        "location": "Feet",
        "related_loc_id": [
            116,
            196,
            244
        ],
        "related_med_id": [
            38
        ]
    },
    {
        "id": 104,
        "name": "Toothache",
        "description": "",
        "url": "https://api.nhs.uk/conditions/toothache/",
        "severity": 1,
        "rarity": 2,
        "location": "Mouth",
        "related_loc_id": [
            153,
            255,
            388
        ],
        "related_med_id": [
            28
        ]
    },
    {
        "id": 105,
        "name": "Tailbone (coccyx) pain",
        "description": "The main symptom of tailbone pain is pain at the base of your spine, near the top of your bottom. The pain is often worse when you\u2019re sitting down.",
        "url": "https://api.nhs.uk/conditions/tailbone-coccyx-pain/",
        "severity": 1,
        "rarity": 3,
        "location": "Butt",
        "related_loc_id": [
            75,
            186,
            189
        ],
        "related_med_id": [
            39
        ]
    },
    {
        "id": 106,
        "name": "Teeth grinding (bruxism)",
        "description": "Teeth grinding is usually caused by stress and anxiety. But it can also be related to sleep problems, taking certain medicines, smoking and alcohol.",
        "url": "https://api.nhs.uk/conditions/teeth-grinding/",
        "severity": 1,
        "rarity": 2,
        "location": "Mouth",
        "related_loc_id": [
            51,
            147,
            200
        ],
        "related_med_id": [
            41
        ]
    },
    {
        "id": 107,
        "name": "Testicle lumps and swellings",
        "description": "",
        "url": "https://api.nhs.uk/conditions/testicle-lumps-and-swellings/",
        "severity": 2,
        "rarity": 3,
        "location": "Genitals",
        "related_loc_id": [
            106,
            120,
            336
        ],
        "related_med_id": [
            16
        ]
    },
    {
        "id": 108,
        "name": "Tics",
        "description": "Tics are unintentional, fast and repetitive muscle movements. Find out how long they last, when to get medical advice and how they can be treated.",
        "url": "https://api.nhs.uk/conditions/tics/",
        "severity": 2,
        "rarity": 3,
        "location": "FullBody",
        "related_loc_id": [
            12,
            64,
            274
        ],
        "related_med_id": [
            22,
            70
        ]
    },
    {
        "id": 109,
        "name": "Tinnitus",
        "description": "Tinnitus can sound like ringing, buzzing, whooshing, humming, hissing, throbbing, music or singing. You may hear these sounds in your head or ears.",
        "url": "https://api.nhs.uk/conditions/tinnitus/",
        "severity": 3,
        "rarity": 4,
        "location": "Ears",
        "related_loc_id": [
            258,
            294,
            327
        ],
        "related_med_id": [
            81
        ]
    },
    {
        "id": 110,
        "name": "Tremor or shaking hands",
        "description": "Read about tremor, which is when you're not able to control shaking or trembling in part of your body.",
        "url": "https://api.nhs.uk/conditions/tremor-or-shaking-hands/",
        "severity": 2,
        "rarity": 3,
        "location": "Hands",
        "related_loc_id": [
            90,
            298,
            322
        ],
        "related_med_id": [
            18,
            78
        ]
    },
    {
        "id": 111,
        "name": "Twitching eyes and muscles",
        "description": "Twitches are usually caused by things like stress, anxiety, tiredness, caffeine or alcohol. A twitch can also be a side effect of some medicines.",
        "url": "https://api.nhs.uk/conditions/twitching-eyes-and-muscles/",
        "severity": 2,
        "rarity": 3,
        "location": "Eyes",
        "related_loc_id": [
            270,
            319,
            376
        ],
        "related_med_id": [
            84
        ]
    },
    {
        "id": 112,
        "name": "Testicle pain",
        "description": "",
        "url": "https://api.nhs.uk/conditions/testicle-pain/",
        "severity": 2,
        "rarity": 3,
        "location": "Genitals",
        "related_loc_id": [
            145,
            304,
            370
        ],
        "related_med_id": [
            80
        ]
    },
    {
        "id": 113,
        "name": "Toe pain",
        "description": "Toe pain can have lots of causes. You can usually ease the pain yourself but see a GP if it has not improved after treating it at home for 2 weeks.",
        "url": "https://api.nhs.uk/conditions/foot-pain/toe-pain/",
        "severity": 1,
        "rarity": 3,
        "location": "Feet",
        "related_loc_id": [
            46,
            172,
            279
        ],
        "related_med_id": [
            11
        ]
    },
    {
        "id": 114,
        "name": "Thumb pain",
        "description": "There are many causes of thumb pain. You can often ease the pain yourself. But see a GP if the pain does not improve.",
        "url": "https://api.nhs.uk/conditions/hand-pain/thumb-pain/",
        "severity": 1,
        "rarity": 3,
        "location": "Hands",
        "related_loc_id": [
            121,
            292,
            386
        ],
        "related_med_id": [
            58,
            61
        ]
    },
    {
        "id": 115,
        "name": "Unintentional weight loss",
        "description": "Many things can cause unintentional weight loss. Common causes are stress and digestion problems. Sometimes it can be something serious like cancer.",
        "url": "https://api.nhs.uk/conditions/unintentional-weight-loss/",
        "severity": 2,
        "rarity": 3,
        "location": "Stomach",
        "related_loc_id": [
            91,
            128,
            162
        ],
        "related_med_id": [
            16
        ]
    },
    {
        "id": 116,
        "name": "Vaginal discharge",
        "description": "Vaginal discharge is usually clear and does not have a strong smell. You might have an infection if your usual discharge changes appearance or smell.",
        "url": "https://api.nhs.uk/conditions/vaginal-discharge/",
        "severity": 1,
        "rarity": 2,
        "location": "Genitals",
        "related_loc_id": [
            60,
            67,
            329
        ],
        "related_med_id": [
            47
        ]
    },
    {
        "id": 117,
        "name": "Vaginal dryness",
        "description": "Symptoms of vaginal dryness include a sore and itchy vagina, pain during sex and needing to pee more than usual.",
        "url": "https://api.nhs.uk/conditions/vaginal-dryness/",
        "severity": 1,
        "rarity": 3,
        "location": "Genitals",
        "related_loc_id": [
            105,
            171,
            174
        ],
        "related_med_id": [
            32
        ]
    },
    {
        "id": 118,
        "name": "Vomiting blood",
        "description": "Common causes of vomiting blood include gastritis and stomach ulcers. Less often it can be caused by medicines or cancer.",
        "url": "https://api.nhs.uk/conditions/vomiting-blood/",
        "severity": 3,
        "rarity": 3,
        "location": "Blood",
        "related_loc_id": [
            7,
            222,
            333
        ],
        "related_med_id": [
            27,
            39
        ]
    },
    {
        "id": 119,
        "name": "Vertigo",
        "description": "Vertigo is when you feel like you or everything around you is spinning. It can also affect your balance.",
        "url": "https://api.nhs.uk/conditions/vertigo/",
        "severity": 3,
        "rarity": 4,
        "location": "FullBody",
        "related_loc_id": [
            35,
            157,
            264
        ],
        "related_med_id": [
            32,
            73
        ]
    },
    {
        "id": 120,
        "name": "Watering eyes",
        "description": "Common causes of watering eyes include smoke, an eye injury, something in your eyes, an allergy or an infection.",
        "url": "https://api.nhs.uk/conditions/watering-eyes/",
        "severity": 1,
        "rarity": 3,
        "location": "Eyes",
        "related_loc_id": [
            191,
            210,
            297
        ],
        "related_med_id": [
            45
        ]
    },
    {
        "id": 121,
        "name": "Worms in humans",
        "description": "A pharmacist can help if you have small, white worms called threadworms. They're common in the UK and can be treated with medicine from a pharmacy.",
        "url": "https://api.nhs.uk/conditions/worms-in-humans/",
        "severity": 3,
        "rarity": 4,
        "location": "FullBody",
        "related_loc_id": [
            110,
            123,
            134
        ],
        "related_med_id": [
            19,
            24
        ]
    },
    {
        "id": 122,
        "name": "Wrist pain",
        "description": "There are many causes of wrist pain. You can often ease the pain yourself. But see a GP if the pain does not improve.",
        "url": "https://api.nhs.uk/conditions/hand-pain/wrist-pain/",
        "severity": 1,
        "rarity": 3,
        "location": "Hands",
        "related_loc_id": [
            109,
            141,
            383
        ],
        "related_med_id": [
            29,
            48
        ]
    }
]