[
    "Lots of things can cause anal pain. Common causes include constipation, piles, and anal fissures.",
    "Ankle pain can have lots of causes. You can usually ease the pain yourself but see a GP if it has not improved after treating it at home for 2 weeks.",
    "Blood in your semen can be red, pink or brown. Sometimes you might also have other symptoms such as blood in your pee or pain when peeing.",
    "",
    "Breast pain is usually linked to periods. Sometimes it can be caused by a condition like mastitis or a medicine like the contraceptive pill.",
    "With cyanosis, your lips, tongue, gums, ears, skin under your nails or skin around your eyes turn blue or grey.",
    "Information for people with vision loss including details of support organisations, plus advice about specialist equipment, home modifications and mobility.",
    "Back pain can have many causes, including an injury like a strain. Sometimes conditions like sciatica or a slipped disc can cause back pain.",
    "To avoid bad breath, it can help to brush your teeth and gums at least twice a day, clean your tongue once a day and use antibacterial mouthwash.",
    "Things you can do to help with bedwetting include making sure your child goes to the toilet regularly and using waterproof covers on mattresses.",
    "Signs of bleeding from the bottom include blood on your toilet paper, blood on or in your poo, pink water in the toilet, or very dark, smelly poo.",
    "To stop yourself blushing, it can help to breathe deeply and try to relax. Keep cool by removing a layer of clothing and drinking water.",
    "Find out about breast lumps. They can have a lot of different causes and most are harmless. But always see a GP if you have a lump in your breast or any unusual changes to your breasts.",
    "If you have bulging eyes, you may notice they seem to stick out more than usual and you can see more of the whites of your eyes.",
    "You can treat body odour yourself by washing with soap at least twice a day, shaving your armpits, and using antiperspirants and deodorants.",
    "Symptoms of bloating include your tummy feeling full and bigger than usual, your tummy rumbling, tummy pain and farting more than usual.",
    "",
    "You can treat a cough yourself. Rest and drink plenty of fluids. You could also try hot lemon and honey (not suitable for babies under 1 year old).",
    "You might cough up blood if you have a persistent or severe cough, or a chest infection, pneumonia or bronchitis.",
    "Symptoms of constipation include going for a poo fewer than 3 times in a week and finding it hard to poo.",
    "Symptoms of dizziness include problems with balance, feeling lightheaded and feeling like everything is spinning.",
    "Read about dry mouth, including what causes it and things you can do to help ease it yourself.",
    "You may have double vision if you look at 1 object but see 2 images. Children may cover an eye with their hand or squint to see better.",
    "Having dry eyes can make your eyes feel itchy, gritty and sore. Your eyes may also look red and be more watery than usual.",
    "Dysphagia is the medical term for having difficulty swallowing.",
    "Diarrhoea and vomiting can usually be treated at home. It's important to get plenty of rest and drink lots of fluids to avoid dehydration.",
    "If you have earache, you may also have other symptoms, like a high temperature or hearing loss. Earache can be harder to spot in young children.",
    "Read about the common causes of arm pain, including sprains, tennis or golfer's elbow and bursitis, plus simple self care techniques, such as ice packs and painkillers.",
    "Symptoms of excessive daytime sleepiness can include falling asleep during the day or having regular naps and not feeling refreshed afterwards.",
    "Eyelid problems are not usually serious. It's fairly common to have a lump, or itchy, flaky or sticky eyelids that clear up by themselves.",
    "Find out about excessive thirst, including what might be causing it, when to see a GP and the difference between dry mouth and excessive thirst.",
    "The main symptom of erectile dysfunction is not being able to get or keep an erection.",
    "Find out about possible causes and treatments for excessive sweating (hyperhydrosis).",
    "Hirsutism is linked to changes in hormones. The most common cause is a condition called polycystic ovary syndrome (PCOS).",
    "Common causes of foot drop include sports injuries, a slipped disc in the spine, and crossing your legs, kneeling or squatting a lot.",
    "Fainting is when you pass out for a short time. It's not usually a sign of something serious, but if it happens you should see a GP.",
    "It's normal to fart several times a day. It's only a problem if you notice a change, such as farting more than usual, or it's affecting your life.",
    "Floaters are small shapes in your vision, such as dots and lines. Flashes are when you see sudden, unexplained flashes of light.",
    "If you feel sick, things that can help include getting plenty of fresh air, drinking cold drinks or ginger tea and avoiding large meals or fried food.",
    "There are many causes of finger pain. You can often ease the pain yourself. But see a GP if the pain does not improve.",
    "A fever is a high temperature of 38C or more. A child with a fever may also be hot and sweaty.",
    "Hallucinations are where you hear, see, smell, taste or feel things that appear to be real but only exist in your mind.",
    "Heart palpitations can feel like your heartbeat is very fast, irregular, pounding or fluttering. You may feel them in your chest, neck or throat.",
    "Lots of things can cause hip pain. Common causes include a sprain or strain and arthritis. Sometimes it can be something serious like a hip fracture.",
    "The most common cause of hip pain in children is a condition called irritable hip. Less common causes include an infection or a broken bone.",
    "Hair loss can happen naturally or be caused by a medical condition. There are treatments that may help if your hair loss is upsetting you.",
    "Hearing loss can be hard to spot at first. Common signs are difficulty hearing other people clearly and needing the TV to be loud.",
    "The main symptoms of acid reflux are a burning feeling in the middle of your chest (heartburn) and an unpleasant sour taste in your mouth.",
    "The main symptoms of heavy periods are losing a lot of blood during your period or your periods lasting longer than 7 days.",
    "Read about things you can do yourself to stop or prevent hiccups.",
    "To help ease a headache, drink plenty of water, try to rest and relax, and take paracetamol and ibuprofen if you need to.",
    "Symptoms of a high temperature can include your chest or back feeling hot, sweating and shivering (chills).",
    "Heel pain is very common, especially if you exercise regularly. You can usually ease the pain yourself but see a GP if the pain does not improve.",
    "Symptoms of indigestion can include heartburn, bloating, feeling sick, burping and bringing up food into your mouth.",
    "You have irregular periods if the length of your menstrual cycle (the gap between your periods starting) keeps changing.Your periods may come early or late.",
    "To ease an itchy bottom, it may help to have cool showers or baths, wash and dry your bottom (anus) after pooing and wear loose cotton underwear.",
    "Itchy skin is not usually a sign of anything serious. You can often treat it yourself and it will usually go away after a few weeks.",
    "Joint pain can affect any of your joints, including knees, hips and toes. You might feel pain in 1 joint or more than 1 joint at the same time.",
    "Find out about jaundice, where the skin and the whites of the eyes turn yellow. It's caused by a build-up of a substance called bilirubin.",
    "To ease knee pain and swelling, avoid putting weight on your knee, use an ice pack for up to 20 minutes every 2 to 3 hours, and take painkillers.",
    "Common causes of limping in children are a sprain or strain, or a broken bone. But a limp without an obvious cause should always be checked by a GP.",
    "Common causes of a low sex drive include relationship problems, sexual problems and stress, anxiety or depression.",
    "Lumps and growths on the skin can be soft or hard to touch. Some can move around and they can vary in size.",
    "The main symptom of leg cramps is a sudden pain in a leg muscle that lasts a short time before going away.",
    "A change in your sense of smell can be unpleasant and affect how things taste. But it is not usually serious and may get better in a few weeks or months.",
    "Common causes of metallic taste include gum disease, certain medicines, cancer treatments, and colds, sinus infections and other airway problems.",
    "Mouth ulcers usually heal within 2 weeks. To help ease the pain and speed up the healing process, avoid spicy, salty or crunchy foods.",
    "",
    "Find out about different nail problems, including brittle or crumbly nails, thickened, overgrown nails, or changes in nail colour.",
    "You can ease neck pain by taking paracetamol or ibuprofen, using a firm pillow, putting heat or cold packs on your neck and doing neck exercises.",
    "Night sweats are when you sweat so much that your night clothes and bedding get soaking wet.",
    "Read about nipple discharge, including what can cause it and when to see a GP. It's usually nothing serious, but sometimes it's a good idea to get it checked.",
    "Find out about ovulation pain including how to treat it, it's affect on your fertility, and when you need to see a doctor.",
    "Pelvic pain is felt in your lower tummy. The pain can vary from sharp and stabbing to dull or throbbing.",
    "Read about period pain, including symptoms, when to see your GP, causes, diagnosing underlying conditions, and treatment.",
    "Pins and needles is pricking, tingling or numbness on the skin. It often affects your arms or legs when the blood supply to the nerves is cut off.",
    "",
    "Paralysis is the loss of the ability to move some or all of your body. It can have lots of different causes, some of which can be serious. Depending on the cause, it may be temporary or permanent.",
    "A persistent, often painful erection. If it lasts for more than 2 hours, go to A&E to prevent permanent damage.",
    "Pain in the top of your foot will often get better in a few weeks. See a GP if it does not improve.",
    "Pain in the bottom of your foot (ball, arch or sole) will often get better in a few weeks. See a GP if it does not improve.",
    "Pain in the ball of your foot is known as metatarsalgia. You can usually ease the pain yourself. But see a GP if it does not improve.",
    "There are many causes of pain in the palm of your hand. You can often ease the pain yourself. But see a GP if the pain does not improve.",
    "Pain in the back of the hand can have many causes. See a GP if the pain has not improved after treating it at home for 2 weeks.",
    "Psychosis is when people lose some contact with reality. This might involve seeing or hearing things that other people cannot see or hear (hallucinations) and believing things that are not actually true (delusions)."
]