﻿"name","price","rating"
"﻿BUENOS AIRES","2.3191489361702127","4.28"
"Córdoba","2.0","4.25"
"La Plata","2.1025641025641026","4.06"
"Mar del Plata-Batán","2.0","2.9"
"Mendoza","2.2972972972972974","4.26"
"Rosario","2.1794871794871793","4.3"
"Salta","1.9444444444444444","4.13"
"San Juan","1.9791666666666667","4.39"
"Tucumán-Tafí Viejo","1.7826086956521738","3.65"
"La Matanza","1.8484848484848484","3.73"
"Lanus","2.148936170212766","4.18"
"Lomas de Zamora","2.0952380952380953","3.99"
"Morón","2.238095238095238","4.08"
"Quilmes","1.9047619047619047","3.77"
"San Miguel de Tucumán","1.7272727272727273","3.58"
"Adelaide","1.9166666666666667","4.33"
"Brisbane","2.021276595744681","4.19"
"Canberra-Queanbeyan","1.9189189189189189","4.12"
"Gold Coast-Tweed Heads","2.0476190476190474","4.29"
"Greater Adelaide","1.9375","4.34"
"Greater Brisbane","2.021276595744681","4.19"
"Greater Melbourne","2.122448979591837","4.25"
"Greater Sydney","1.7777777777777777","4.27"
"Melbourne","2.08","4.25"
"Newcastle-Maitland","1.8","3.46"
"Perth","1.4","3.661290322580645"
"Sydney","2.0","4.32"
"Gold Coast","2.097560975609756","4.29"
"WIEN","2.097560975609756","4.3"
"Antwerpen (Anvers)","2.020408163265306","4.32"
"LA PAZ","1.5","2.6"
"Santa Cruz","1.9111111111111112","4.23"
"Ananindeua","2.1481481481481484","4.12"
"Aracaju","2.4545454545454546","3.9489795918367347"
"Belford Roxo","2.09375","4.36"
"Belo Horizonte","2.1666666666666665","4.29"
"BRASILIA","2.2","4.48"
"Campinas","2.3181818181818183","4.27"
"Campo Grande","2.2857142857142856","3.9642857142857144"
"Caxias do Sul","2.0","4.15"
"Curitiba","1.8285714285714285","4.61"
"Feira de Santana","1.3333333333333333","3.8461538461538463"
"Fortaleza","2.5853658536585367","4.42"
"Goiânia","2.1","4.48"
"Guarulhos","2.0294117647058822","4.12"
"Joao Pessoa","2.0","4.37"
"Joinville","1.8333333333333333","4.068181818181818"
"Juiz de Fora","1.375","3.86"
"Londrina","1.8571428571428572","4.2272727272727275"
"Maceió","2.380952380952381","4.49"
"Manaus","2.272727272727273","4.16"
"Mauá","2.1","4.42"
"Natal","2.533333333333333","4.67"
"Niterói","2.2857142857142856","4.39"
"Nova Iguaçu","1.8461538461538463","3.9285714285714284"
"Osasco","2.1025641025641026","4.47"
"Porto Alegre","2.0232558139534884","4.46"
"Recife","2.4444444444444446","4.55"
"Ribeirao Prêto","2.130434782608696","4.35"
"Rio de Janeiro","2.25","4.38"
"Salvador","2.097560975609756","4.37"
"Santo André","2.090909090909091","4.03"
"Santos","2.0714285714285716","4.48"
"Sao Bernardo do Campo","2.0","4.175675675675675"
"Sao José dos Campos","2.15625","4.26"
"Sao Luís","2.0","4.5"
"Sorocaba","2.2083333333333335","4.03"
"Teresina","1.6666666666666667","4.2368421052631575"
"Uberlândia","1.8571428571428572","4.066666666666666"
"Brampton","1.7916666666666667","3.98"
"Calgary","2.148936170212766","4.34"
"Edmonton","2.06","4.31"
"Hamilton","1.5294117647058822","3.975609756097561"
"Laval","1.9787234042553192","4.29"
"Mississauga","1.8979591836734695","4.16"
"Montréal","1.9387755102040816","4.27"
"OTTAWA","2.0416666666666665","4.3"
"Ottawa - Gatineau","2.066666666666667","4.33"
"Québec","2.25","4.31"
"Surrey","2.090909090909091","4.21"
"Toronto","2.2708333333333335","4.24"
"Vancouver","2.2708333333333335","4.28"
"Winnipeg","1.9565217391304348","4.31"
"St Catharines-Niagara","1.9047619047619047","4.25"
"Puente Alto","2.3947368421052633","4.4"
"SANTIAGO","2.558139534883721","4.37"
"Acheng","2.1041666666666665","4.16"
"Da'an","1.8888888888888888","4.38"
"Datong","1.8","4.32"
"Donggang","1.7142857142857142","3.825"
"Hailun","1.9259259259259258","3.64"
"Jurong","1.75","4.06"
"Panshi","1.5625","3.98"
"Shuangcheng","2.0425531914893615","4.24"
"Taishan","1.7317073170731707","4.35"
"Taonan","1.8095238095238095","4.21"
"Xinji","2.020408163265306","4.28"
"Xinmin","1.7142857142857142","4.31"
"Zhongshan","1.9782608695652173","4.32"
"HONG KONG SAR","1.7333333333333334","4.25"
"Soledad","1.3902439024390243","3.99"
"PRAHA","2.1702127659574466","4.45"
"KOBENHAVN","1.9782608695652173","4.31"
"SANTO DOMINGO","1.7777777777777777","4.31"
"Alexandria","1.9591836734693877","4.21"
"Mansûra","1.4285714285714286","3.445945945945946"
"Tanta","2.4468085106382977","4.2"
"HELSINKI","2.3255813953488373","4.3"
"Lyon","2.1914893617021276","4.29"
"Marseille","2.5434782608695654","4.18"
"PARIS","2.2972972972972974","4.42"
"Toulouse","2.306122448979592","4.24"
"BERLIN","1.6129032258064515","4.35"
"Bremen","2.3684210526315788","4.34"
"Dortmund","2.116279069767442","4.35"
"Dresden","2.225","4.36"
"Duisburg","2.125","4.18"
"Düsseldorf","2.2291666666666665","4.31"
"Essen","2.2666666666666666","4.26"
"Frankfurt am Main","2.3333333333333335","4.31"
"Hamburg","2.138888888888889","4.51"
"Hannover","2.272727272727273","4.2"
"Köln","2.238095238095238","4.31"
"Leipzig","2.255813953488372","4.28"
"München","2.048780487804878","4.28"
"Nürnberg","1.934782608695652","4.34"
"Stuttgart","2.4318181818181817","4.23"
"Salem","1.7727272727272727","4.23"
"Kerman","1.1851851851851851","3.43"
"DUBLIN","2.0638297872340425","4.4"
"JERUSALEM","1.641025641025641","4.14"
"Genova","2.0789473684210527","4.45"
"Milano","2.2916666666666665","4.44"
"Napoli","1.6666666666666667","4.49"
"Palermo","2.027027027027027","4.34"
"ROMA","1.7209302325581395","4.48"
"Torino","2.3684210526315788","4.32"
"KINGSTON","1.5","3.5714285714285716"
"Amagasaki","1.4883720930232558","4.54"
"Chiba","1.5","4.7"
"Fujisawa","1.4848484848484849","4.5"
"Fukuoka","1.2765957446808511","4.43"
"Funabashi","1.4285714285714286","4.63"
"Gifu","1.5","4.34"
"Hachioji","1.4210526315789473","4.6"
"Hamamatsu","2.0","4.428571428571429"
"Higashiosaka","1.5681818181818181","4.51"
"Himeji","1.0769230769230769","4.59"
"Hirakata","1.5454545454545454","4.55"
"Hiroshima","1.4137931034482758","4.66"
"Ichikawa","1.7073170731707317","4.58"
"Kagoshima","1.5714285714285714","4.7"
"Kanazawa","1.6521739130434783","4.61"
"Kashiwa","1.5517241379310345","4.6"
"Kawaguchi","1.4651162790697674","4.56"
"Kitakyushu","1.2666666666666666","4.55"
"Kobe","2.1052631578947367","4.44"
"Kumamoto","1.8","4.73"
"Kurashiki","1.2857142857142858","4.29"
"Kyoto","1.5434782608695652","4.57"
"Matsudo","1.5","4.56"
"Matsuyama","1.3333333333333333","4.39"
"Nagasaki","1.4285714285714286","4.52"
"Nagoya","1.5945945945945945","4.49"
"Niigata","1.3076923076923077","4.39"
"Nishinomiya","1.9473684210526316","4.56"
"Oita","1.6666666666666667","4.54"
"Okayama","1.375","4.65"
"Osaka","1.5","4.51"
"Sagamihara","1.736842105263158","4.55"
"Sapporo","1.4871794871794872","4.49"
"Sendai","1.6129032258064515","4.62"
"Shizuoka","1.3076923076923077","4.62"
"Takamatsu","1.3333333333333333","4.37"
"TOKYO","1.7272727272727273","4.54"
"Toyama","1.5","4.7"
"Utsunomiya","1.173913043478261","4.54"
"Yokohama","1.641025641025641","4.42"
"Yokosuka","1.2291666666666667","4.46"
"Omiya","1.1153846153846154","4.61"
"MONROVIA","1.816326530612245","4.21"
"MB Ipoh","1.25","4.25"
"MB Johor Bahru","1.8717948717948718","4.31"
"KUALA LUMPUR","2.0454545454545454","4.17"
"Acapulco (de Juárez)","2.28125","4.35"
"Aguascalientes","1.75","4.53"
"Cancun","2.466666666666667","4.4"
"Celaya","2.1666666666666665","4.36"
"Chihuahua","1.9411764705882353","4.5"
"Chimalhuacan","1.631578947368421","4.41"
"Ciudad Apodaca","2.388888888888889","4.39"
"Ciudad López Mateos","2.227272727272727","4.41"
"Cuautitlan Izcalli","1.9583333333333333","4.43"
"Culiacán Rosales","2.0","4.29"
"Durango (Victoria de Durango)","1.6666666666666667","4.22"
"Ecatepec (de Morelos)","2.097560975609756","4.47"
"Ensenada","1.8","4.5"
"Guadalajara","2.0638297872340425","4.42"
"Guadalupe Nuevo León","2.236842105263158","4.44"
"Hermosillo","2.090909090909091","4.59"
"Irapuato","1.625","4.08"
"Juárez","2.0","4.41"
"León (de los Aldama)","2.05","4.33"
"Matamoros","1.4545454545454546","4.42"
"Mazatlán","1.8055555555555556","4.4"
"Mérida","1.7894736842105263","4.49"
"Mexicali","1.903225806451613","4.36"
"MEXICO CIUDAD DE","2.1818181818181817","4.43"
"Monterrey","2.375","4.38"
"Morelia","2.0","4.33"
"Naucalpan de Juárez","2.2666666666666666","4.41"
"Netzahualcóyotl","2.0952380952380953","4.41"
"Puebla de Zaragoza","1.8461538461538463","4.38"
"Querétaro","2.064516129032258","4.47"
"Reynosa","1.380952380952381","4.33"
"Saltillo","2.3846153846153846","3.94"
"San Luis Potosí","1.826086956521739","4.43"
"San Nicolas de los Garza","2.3333333333333335","4.4"
"Tijuana","1.7142857142857142","4.46"
"Tlalnepantla","2.1707317073170733","4.45"
"Tlaquepaque","2.0","4.39"
"Toluca (de Lerdo)","1.92","4.55"
"Tonala","2.1136363636363638","4.4"
"Torreón","1.8181818181818181","3.83"
"Tuxtla Gutiérrez","1.625","3.9324324324324325"
"Veracruz","2.0526315789473686","4.44"
"Xalapa-Enriquez","1.8461538461538463","4.34"
"Zapopan","2.1956521739130435","4.42"
"AMSTERDAM","2.0869565217391304","4.43"
"Rotterdam","2.088888888888889","4.29"
"s-Gravenhage","2.340909090909091","4.4"
"The Hague","1.5","3.888888888888889"
"Auckland","2.2888888888888888","4.45"
"OSLO","1.853658536585366","4.31"
"ASUNCION","1.3043478260869565","3.902173913043478"
"Antipolo","2.3","3.7580645161290325"
"Bacolod","2.0","3.872093023255814"
"Bacoor City","2.7708333333333335","4.39"
"Cagayan de Oro","2.5","4.326086956521739"
"Cebu","2.2903225806451615","4.26"
"Dasmariñas","2.5454545454545454","4.13"
"Davao","2.0","4.0"
"General Santos","2.0","3.67"
"Kalookan (Caloocan)","2.590909090909091","4.37"
"Las Piñas","2.5405405405405403","4.48"
"Makati","2.625","4.35"
"MANILA","2.5714285714285716","4.37"
"Marikina","2.604651162790698","4.43"
"Muntinlupa","2.7555555555555555","4.36"
"Paranaque","2.953488372093023","4.38"
"Pasig","2.4375","4.38"
"Quezon City","2.1956521739130435","4.37"
"San Jose Del Monte","2.2857142857142856","4.33"
"Taguig","2.765957446808511","4.26"
"Valenzuela","2.2790697674418605","4.36"
"Zamboanga","2.25","3.8125"
"Gdansk","2.1904761904761907","4.38"
"Kraków","1.6046511627906976","4.38"
"Lódz","2.1315789473684212","4.41"
"Poznan","2.0555555555555554","4.62"
"Szczecin","2.027027027027027","4.43"
"WARSZAWA","1.9090909090909092","4.34"
"Wroclaw","1.7804878048780488","4.4"
"LISBOA","2.022222222222222","4.45"
"St. Petersburg","1.8958333333333333","4.34"
"Tula","2.0","4.4"
"FREETOWN","1.6888888888888889","4.28"
"SINGAPORE","1.951219512195122","4.3"
"Johannesburg","1.0","4.318181818181818"
"Barcelona","1.9782608695652173","4.51"
"MADRID","1.7674418604651163","4.42"
"Málaga","1.7","4.45"
"Murcia","1.7567567567567568","4.43"
"Palma de Mallorca","2.090909090909091","4.56"
"Sevilla","1.7209302325581395","4.42"
"Zaragoza","1.813953488372093","4.44"
"Palma","2.090909090909091","4.56"
"Göteborg","2.297872340425532","4.37"
"STOCKHOLM","2.2045454545454546","4.34"
"Adana","1.76","4.42"
"ANKARA","1.9393939393939394","4.64"
"Antalya","2.45","4.58"
"Bursa","2.111111111111111","4.69"
"Denizli","2.0","4.2125"
"Diyarbakir","1.8666666666666667","4.28"
"Gaziantep","1.875","4.25"
"Istanbul","2.076923076923077","4.5"
"Izmir","2.125","4.74"
"Kahramanmaras","1.8928571428571428","4.24"
"Kayseri","1.8333333333333333","3.9782608695652173"
"Kocaeli","2.0","3.9444444444444446"
"Konya","1.5454545454545454","4.527027027027027"
"Malatya","1.2857142857142858","4.125"
"Mersin","1.736842105263158","3.97"
"Sakarya","1.4545454545454546","3.8833333333333333"
"Samsun","2.0","3.5875"
"Sanliurfa","1.8","4.333333333333333"
"Bristol","1.8604651162790697","4.33"
"Edinburgh","1.9189189189189189","4.35"
