[
    {
        "name": "Don Julio",
        "food_types": "Steakhouses",
        "rating": "4.5"
    },
    {
        "name": "La Carnicer\u00eda",
        "food_types": "Steakhouses, Bars",
        "rating": "4.5"
    },
    {
        "name": "Feriado",
        "food_types": "Argentine, Wine Bars",
        "rating": "5.0"
    },
    {
        "name": "La Cabrera",
        "food_types": "Steakhouses, Argentine",
        "rating": "4.0"
    },
    {
        "name": "Chori",
        "food_types": "Steakhouses, Salad, Vegetarian",
        "rating": "4.5"
    },
    {
        "name": "Fog\u00f3n",
        "food_types": "Steakhouses",
        "rating": "5.0"
    },
    {
        "name": "El Preferido de Palermo",
        "food_types": "Pubs, Argentine",
        "rating": "4.0"
    },
    {
        "name": "1810 Cocina Regional",
        "food_types": "Argentine, Empanadas",
        "rating": "4.5"
    },
    {
        "name": "878",
        "food_types": "Argentine, Cocktail Bars",
        "rating": "4.5"
    },
    {
        "name": "Sarkis",
        "food_types": "Arabic, Armenian, Middle Eastern",
        "rating": "4.5"
    },
    {
        "name": "Genghis",
        "food_types": "Mongolian, Asian Fusion",
        "rating": "5.0"
    },
    {
        "name": "Koh Lanta",
        "food_types": "Thai",
        "rating": "4.0"
    },
    {
        "name": "Lekeitio",
        "food_types": "Basque",
        "rating": "5.0"
    },
    {
        "name": "Nola",
        "food_types": "Cajun/Creole, Pubs",
        "rating": "4.0"
    },
    {
        "name": "Casa Barro",
        "food_types": "Argentine",
        "rating": "4.5"
    },
    {
        "name": "S\u00edntesis",
        "food_types": "Ramen, Asian Fusion, Tapas/Small Plates",
        "rating": "4.5"
    },
    {
        "name": "G\u00fcerr\u00edn",
        "food_types": "Pizza",
        "rating": "4.5"
    },
    {
        "name": "Nihonbashi",
        "food_types": "Japanese",
        "rating": "4.5"
    },
    {
        "name": "Namu",
        "food_types": "Korean, Coffee & Tea",
        "rating": "4.5"
    },
    {
        "name": "Buenos Aires Verde",
        "food_types": "Vegetarian",
        "rating": "4.5"
    },
    {
        "name": "El Papagayo",
        "food_types": "Argentine",
        "rating": "4.5"
    },
    {
        "name": "La Vieja Esquina",
        "food_types": "Argentine",
        "rating": "4.5"
    },
    {
        "name": "Bruncheria",
        "food_types": "Cafeteria, Breakfast & Brunch",
        "rating": "4.0"
    },
    {
        "name": "Tucson",
        "food_types": "American (Traditional), Steakhouses, Burgers",
        "rating": "4.5"
    },
    {
        "name": "Grabeat",
        "food_types": "Burgers, Sandwiches, Street Vendors",
        "rating": "4.5"
    },
    {
        "name": "Il Forno Di Marco",
        "food_types": "Pizza, Italian",
        "rating": "4.5"
    },
    {
        "name": "Alcorta Carnes y Vinos",
        "food_types": "Steakhouses",
        "rating": "4.0"
    },
    {
        "name": "Punta Sal",
        "food_types": "Peruvian",
        "rating": "4.5"
    },
    {
        "name": "Kantine",
        "food_types": "Sports Bars, Delicatessen",
        "rating": "3.0"
    },
    {
        "name": "Sibaris Restaurante",
        "food_types": "Argentine, Mediterranean",
        "rating": "4.5"
    },
    {
        "name": "Estaci\u00f3n 27",
        "food_types": "Argentine",
        "rating": "4.5"
    },
    {
        "name": "Alcorta Carnes y Vinos",
        "food_types": "Argentine, Steakhouses",
        "rating": "4.0"
    },
    {
        "name": "Kaori",
        "food_types": "Sushi Bars",
        "rating": "4.5"
    },
    {
        "name": "Standard 69",
        "food_types": "Argentine",
        "rating": "4.0"
    },
    {
        "name": "Cientovolando",
        "food_types": "Tapas/Small Plates",
        "rating": "4.0"
    },
    {
        "name": "Fuegos del Cerro",
        "food_types": "Steakhouses",
        "rating": "5.0"
    },
    {
        "name": "El Viejo Munich",
        "food_types": "Food Stands, Specialty Food",
        "rating": "4.0"
    },
    {
        "name": "La Parrilla",
        "food_types": "Argentine, Steakhouses",
        "rating": "4.5"
    },
    {
        "name": "Raiz",
        "food_types": "Argentine",
        "rating": "5.0"
    },
    {
        "name": "La Taquer\u00eda",
        "food_types": "Mexican",
        "rating": "4.0"
    },
    {
        "name": "Rimbaud",
        "food_types": "Argentine, Cocktail Bars",
        "rating": "4.5"
    },
    {
        "name": "Carne",
        "food_types": "Burgers, Argentine",
        "rating": "4.0"
    },
    {
        "name": "Bukowski Bar",
        "food_types": "Bars, Argentine",
        "rating": "5.0"
    },
    {
        "name": "Lupita",
        "food_types": "Mexican",
        "rating": "5.0"
    },
    {
        "name": "El Club de la Milanesa",
        "food_types": "Bars, Argentine",
        "rating": "3.5"
    },
    {
        "name": "El Tonel",
        "food_types": "Argentine",
        "rating": "4.5"
    },
    {
        "name": "La Bodeguita de La Plata",
        "food_types": "Cuban",
        "rating": "4.0"
    },
    {
        "name": "Don Quijote",
        "food_types": "Argentine",
        "rating": "4.0"
    },
    {
        "name": "Pausa",
        "food_types": "Seafood, Breakfast & Brunch, Cocktail Bars",
        "rating": "5.0"
    },
    {
        "name": "Los Tanitos",
        "food_types": "Argentine, Diners",
        "rating": "4.0"
    },
    {
        "name": "La Terraza",
        "food_types": "Steakhouses, Diners",
        "rating": "5.0"
    },
    {
        "name": "Las Valkirias",
        "food_types": "Beer Bar, Tapas Bars",
        "rating": "4.5"
    },
    {
        "name": "Refugio",
        "food_types": "Tapas/Small Plates, Breweries",
        "rating": "5.0"
    },
    {
        "name": "Club de Tapas",
        "food_types": "Tapas/Small Plates, Tapas Bars",
        "rating": "5.0"
    },
    {
        "name": "A Rienda Suelta",
        "food_types": "Barbeque",
        "rating": "4.5"
    },
    {
        "name": "A Mi Manera",
        "food_types": "Gastropubs",
        "rating": "5.0"
    },
    {
        "name": "Club Atenas",
        "food_types": "Argentine",
        "rating": "3.5"
    },
    {
        "name": "Cervecer\u00eda Alemana",
        "food_types": "Argentine, German",
        "rating": "4.0"
    },
    {
        "name": "Akari",
        "food_types": "Sushi Bars, Japanese",
        "rating": "5.0"
    },
    {
        "name": "Pipistrello",
        "food_types": "Pizza, Tapas Bars",
        "rating": "4.5"
    },
    {
        "name": "Stella Maris",
        "food_types": "Seafood, Argentine, Italian",
        "rating": "4.0"
    },
    {
        "name": "Manolo",
        "food_types": "Seafood, Argentine",
        "rating": "3.5"
    },
    {
        "name": "Mauro.it",
        "food_types": "Italian",
        "rating": "3.0"
    },
    {
        "name": "Romario's Pizza",
        "food_types": "Pizza",
        "rating": "3.0"
    },
    {
        "name": "Village Center",
        "food_types": "Pizza",
        "rating": "1.0"
    },
    {
        "name": "Mar\u00eda Antonieta",
        "food_types": "Bistros, French",
        "rating": "4.5"
    },
    {
        "name": "Josefina",
        "food_types": "Argentine, Mediterranean",
        "rating": "4.5"
    },
    {
        "name": "El Asadito",
        "food_types": "Steakhouses",
        "rating": "4.5"
    },
    {
        "name": "Azafran",
        "food_types": "Argentine, Wine Bars",
        "rating": "4.0"
    },
    {
        "name": "Anna Bistro",
        "food_types": "Bistros, Argentine, French",
        "rating": "4.5"
    },
    {
        "name": "Tasting Patagonia",
        "food_types": "Gastropubs, Bars, Argentine",
        "rating": "5.0"
    },
    {
        "name": "Fuente y Fonda",
        "food_types": "Argentine, Bars",
        "rating": "4.5"
    },
    {
        "name": "BAO",
        "food_types": "Sushi Bars, Ramen, Asian Fusion",
        "rating": "5.0"
    },
    {
        "name": "Cordillera Vinos y Fuegos",
        "food_types": "Wine Bars, Argentine",
        "rating": "4.5"
    },
    {
        "name": "Cachita's",
        "food_types": "Cocktail Bars, Burgers",
        "rating": "5.0"
    },
    {
        "name": "El Mercadito",
        "food_types": "Breakfast & Brunch, Burgers, Sandwiches",
        "rating": "4.0"
    },
    {
        "name": "1884 Restaurant",
        "food_types": "Argentine, Wine Bars, Caterers",
        "rating": "4.0"
    },
    {
        "name": "Don Mario",
        "food_types": "Argentine, Steakhouses",
        "rating": "4.5"
    },
    {
        "name": "Uni\u00f3n",
        "food_types": "Cafeteria",
        "rating": "5.0"
    },
    {
        "name": "Francesco Ristorante",
        "food_types": "Italian",
        "rating": "4.0"
    },
    {
        "name": "La Barra",
        "food_types": "Argentine",
        "rating": "5.0"
    },
    {
        "name": "Bute Plaza Cafe",
        "food_types": "Argentine, Italian",
        "rating": "4.0"
    },
    {
        "name": "La Marchigiana",
        "food_types": "Italian",
        "rating": "3.5"
    },
    {
        "name": "El Perro de Lombardo",
        "food_types": "Argentine",
        "rating": "4.5"
    },
    {
        "name": "Govinda",
        "food_types": "Vegetarian",
        "rating": "4.5"
    },
    {
        "name": "Restaurante Bruno",
        "food_types": "Italian",
        "rating": "4.5"
    },
    {
        "name": "Chinchibira Bar",
        "food_types": "Cocktail Bars, Tapas/Small Plates",
        "rating": "4.5"
    },
    {
        "name": "Studio Megna",
        "food_types": "Restaurants",
        "rating": "5.0"
    },
    {
        "name": "Casimiro",
        "food_types": "Pizza, Tapas Bars",
        "rating": "3.5"
    },
    {
        "name": "Refiner\u00eda",
        "food_types": "Argentine, Steakhouses",
        "rating": "4.5"
    },
    {
        "name": "Viejo Balcon",
        "food_types": "Steakhouses",
        "rating": "4.5"
    },
    {
        "name": "Negroni",
        "food_types": "Tex-Mex, Italian, Cocktail Bars",
        "rating": "3.5"
    },
    {
        "name": "Fausta Cocina",
        "food_types": "Argentine",
        "rating": "4.5"
    },
    {
        "name": "La Chancha y los 20",
        "food_types": "Argentine",
        "rating": "4.0"
    },
    {
        "name": "Los Jardines",
        "food_types": "Mediterranean, Cocktail Bars",
        "rating": "4.0"
    },
    {
        "name": "Churrasquer\u00eda",
        "food_types": "Barbeque",
        "rating": "2.5"
    },
    {
        "name": "Masaru Ramen",
        "food_types": "Ramen",
        "rating": "5.0"
    },
    {
        "name": "Rock&Feller's",
        "food_types": "Bars, American (Traditional)",
        "rating": "4.0"
    },
    {
        "name": "Ceviche",
        "food_types": "Sushi Bars, Peruvian, Nikkei",
        "rating": "4.0"
    },
    {
        "name": "La Negra",
        "food_types": "Steakhouses",
        "rating": "4.0"
    },
    {
        "name": "Maridaje",
        "food_types": "Signature Cuisine",
        "rating": "2.5"
    },
    {
        "name": "Ajoarriero",
        "food_types": "Spanish, Basque, Italian",
        "rating": "4.5"
    },
    {
        "name": "El Bodegon de Charly",
        "food_types": "Diners",
        "rating": "4.0"
    },
    {
        "name": "Bet-El Tenedor Libre",
        "food_types": "Steakhouses, Argentine",
        "rating": "4.0"
    },
    {
        "name": "El Ruedo",
        "food_types": "Gastropubs",
        "rating": "4.5"
    },
    {
        "name": "Do\u00f1a Salta",
        "food_types": "Empanadas, Argentine, Steakhouses",
        "rating": "4.0"
    },
    {
        "name": "Chirimoya",
        "food_types": "Vegan, Vegetarian",
        "rating": "4.5"
    },
    {
        "name": "La Vieja Estaci\u00f3n",
        "food_types": "Argentine",
        "rating": "4.5"
    },
    {
        "name": "La Casona del Molino",
        "food_types": "Argentine",
        "rating": "5.0"
    },
    {
        "name": "El Viejo Jack",
        "food_types": "Steakhouses, Argentine",
        "rating": "5.0"
    },
    {
        "name": "Santana",
        "food_types": "Restaurants",
        "rating": "5.0"
    },
    {
        "name": "Bixi",
        "food_types": "Cafeteria, Argentine",
        "rating": "4.0"
    },
    {
        "name": "Caf\u00e9 del Tiempo",
        "food_types": "Latin American",
        "rating": "4.5"
    },
    {
        "name": "Adelina",
        "food_types": "Argentine",
        "rating": "4.0"
    },
    {
        "name": "El Charrua",
        "food_types": "Steakhouses, Wine Bars",
        "rating": "4.5"
    },
    {
        "name": "El Palacio",
        "food_types": "Argentine, Pizza",
        "rating": "4.5"
    },
    {
        "name": "El Patio de las Empanadas",
        "food_types": "Argentine",
        "rating": "4.0"
    },
    {
        "name": "La Criollita",
        "food_types": "Argentine",
        "rating": "3.5"
    },
    {
        "name": "Ma Cuisine",
        "food_types": "French",
        "rating": "5.0"
    },
    {
        "name": "Jovi",
        "food_types": "Argentine",
        "rating": "4.0"
    },
    {
        "name": "Roque Garcia",
        "food_types": "Argentine",
        "rating": "5.0"
    },
    {
        "name": "Soho",
        "food_types": "Argentine, Bars",
        "rating": "4.0"
    },
    {
        "name": "La Tacita",
        "food_types": "Argentine, Coffee & Tea",
        "rating": "5.0"
    },
    {
        "name": "El Buen Gusto",
        "food_types": "Argentine",
        "rating": "5.0"
    },
    {
        "name": "Zen Sushi",
        "food_types": "Japanese, Sushi Bars",
        "rating": "2.5"
    },
    {
        "name": "Casita Miramar",
        "food_types": "Puerto Rican, Spanish",
        "rating": "4.5"
    },
    {
        "name": "Santaella",
        "food_types": "Caribbean, Latin American, Cocktail Bars",
        "rating": "4.5"
    },
    {
        "name": "Cocina Abierta",
        "food_types": "Puerto Rican, Bars",
        "rating": "4.5"
    },
    {
        "name": "La Cueva del Mar",
        "food_types": "Seafood, Caribbean",
        "rating": "4.5"
    },
    {
        "name": "Wicked Lily",
        "food_types": "Puerto Rican",
        "rating": "4.0"
    },
    {
        "name": "Waiter's Gastro Bar",
        "food_types": "Latin American",
        "rating": "4.5"
    },
    {
        "name": "El Refr\u00e1n",
        "food_types": "Puerto Rican",
        "rating": "4.5"
    },
    {
        "name": "La Casita Blanca",
        "food_types": "Caribbean",
        "rating": "4.5"
    },
    {
        "name": "El Nuevo Acuario",
        "food_types": "Seafood, Caribbean, Steakhouses",
        "rating": "5.0"
    },
    {
        "name": "La Dulce Vida",
        "food_types": "Latin American, Sushi Bars, Seafood",
        "rating": "4.0"
    },
    {
        "name": "173\u00b0",
        "food_types": "Puerto Rican, Cocktail Bars",
        "rating": "5.0"
    },
    {
        "name": "Deaverdura",
        "food_types": "Puerto Rican, Latin American",
        "rating": "4.5"
    },
    {
        "name": "La Bodeguita de Manolo",
        "food_types": "Spanish",
        "rating": "4.5"
    },
    {
        "name": "Birra House",
        "food_types": "Steakhouses, Burgers, Pizza",
        "rating": "5.0"
    },
    {
        "name": "Tavola",
        "food_types": "Italian",
        "rating": "4.5"
    },
    {
        "name": "Vianda",
        "food_types": "Caribbean",
        "rating": "5.0"
    },
    {
        "name": "Marmalade",
        "food_types": "Caribbean, French, Wine Bars",
        "rating": "4.5"
    },
    {
        "name": "San Juan Smokehouse",
        "food_types": "Barbeque, Caribbean, Vegan",
        "rating": "4.5"
    },
    {
        "name": "Ropa Vieja Grill II",
        "food_types": "Latin American, Cuban, Puerto Rican",
        "rating": "4.0"
    },
    {
        "name": "Pirilo",
        "food_types": "Pizza, Tapas Bars, Tapas/Small Plates",
        "rating": "4.5"
    },
    {
        "name": "Il Postino",
        "food_types": "Italian",
        "rating": "4.0"
    },
    {
        "name": "Truman",
        "food_types": "Argentine",
        "rating": "4.5"
    },
    {
        "name": "La Corzuela",
        "food_types": "Argentine, Steakhouses",
        "rating": "5.0"
    },
    {
        "name": "Grupo los Negros",
        "food_types": "Restaurants",
        "rating": "3.5"
    },
    {
        "name": "Parrilla La Criolla",
        "food_types": "Argentine",
        "rating": "4.0"
    },
    {
        "name": "El Portal",
        "food_types": "Argentine",
        "rating": "5.0"
    },
    {
        "name": "Oliverio",
        "food_types": "Argentine, Pizza",
        "rating": "2.0"
    },
    {
        "name": "El Shami",
        "food_types": "Arabic",
        "rating": "4.0"
    },
    {
        "name": "Heller Brasas & Mas",
        "food_types": "Steakhouses, Empanadas",
        "rating": "0.0"
    },
    {
        "name": "Sara Figueroa",
        "food_types": "Empanadas, Argentine",
        "rating": "5.0"
    },
    {
        "name": "Porter Brew House",
        "food_types": "Beer Bar, Argentine",
        "rating": "2.5"
    },
    {
        "name": "La Bernasconi",
        "food_types": "Cafeteria",
        "rating": "0.0"
    },
    {
        "name": "Johnny B. Good",
        "food_types": "Bars, American (Traditional)",
        "rating": "0.0"
    },
    {
        "name": "Doppio Zero",
        "food_types": "Italian",
        "rating": "4.0"
    },
    {
        "name": "Setimio",
        "food_types": "Wine Bars, Italian, Argentine",
        "rating": "3.5"
    },
    {
        "name": "Me Gusta",
        "food_types": "Burgers",
        "rating": "4.0"
    },
    {
        "name": "Amelie",
        "food_types": "Coffee & Tea, Patisserie/Cake Shop, Breakfast & Brunch",
        "rating": "4.0"
    },
    {
        "name": "La Querencia",
        "food_types": "Steakhouses, Argentine",
        "rating": "0.0"
    },
    {
        "name": "Bona Resto",
        "food_types": "Argentine",
        "rating": "5.0"
    },
    {
        "name": "Callate G\u00fcey",
        "food_types": "Tex-Mex",
        "rating": "3.0"
    },
    {
        "name": "La Quintana",
        "food_types": "Latin American",
        "rating": "4.0"
    },
    {
        "name": "El Pamperito",
        "food_types": "Steakhouses",
        "rating": "4.0"
    },
    {
        "name": "Quillagua",
        "food_types": "Bars, Pizza",
        "rating": "0.0"
    },
    {
        "name": "La Farola Express",
        "food_types": "Sandwiches, Pizza",
        "rating": "0.0"
    },
    {
        "name": "Aberdeen Angus",
        "food_types": "Steakhouses",
        "rating": "3.0"
    },
    {
        "name": "Ji Chen",
        "food_types": "Restaurants",
        "rating": "0.0"
    },
    {
        "name": "Sucre",
        "food_types": "Coffee & Tea, Patisserie/Cake Shop, Breakfast & Brunch",
        "rating": "3.5"
    },
    {
        "name": "McDonald's",
        "food_types": "Fast Food, Burgers, American (Traditional)",
        "rating": "1.0"
    },
    {
        "name": "Comedor Universitario UNLAM",
        "food_types": "Cafeteria",
        "rating": "3.5"
    },
    {
        "name": "Di Rocco-Comida Como En Casa",
        "food_types": "Restaurants",
        "rating": "0.0"
    },
    {
        "name": "Pizzeria Coyote",
        "food_types": "Pizza",
        "rating": "0.0"
    },
    {
        "name": "Padula Carmelo",
        "food_types": "Pizza",
        "rating": "0.0"
    },
    {
        "name": "Bonno",
        "food_types": "Cafeteria, Ice Cream & Frozen Yogurt",
        "rating": "3.0"
    },
    {
        "name": "Adriel",
        "food_types": "Restaurants",
        "rating": "0.0"
    },
    {
        "name": "Pizzeria Yaica",
        "food_types": "Pizza",
        "rating": "0.0"
    },
    {
        "name": "Domenica",
        "food_types": "Pizza, Cafeteria",
        "rating": "0.0"
    },
    {
        "name": "Don Justo",
        "food_types": "Steakhouses",
        "rating": "0.0"
    },
    {
        "name": "Domenica",
        "food_types": "Pizza, Cafeteria",
        "rating": "0.0"
    },
    {
        "name": "Juan M Posada Gonz\u00e1lez",
        "food_types": "Restaurants",
        "rating": "0.0"
    },
    {
        "name": "Nuevo Rinc\u00f3n de Italia",
        "food_types": "Restaurants",
        "rating": "0.0"
    },
    {
        "name": "Il Bersagliere",
        "food_types": "Italian",
        "rating": "4.0"
    },
    {
        "name": "Dolce Vita",
        "food_types": "Steakhouses",
        "rating": "5.0"
    },
    {
        "name": "Felix",
        "food_types": "Seafood, Italian, Mediterranean",
        "rating": "4.0"
    },
    {
        "name": "La Farola",
        "food_types": "Argentine",
        "rating": "4.5"
    },
    {
        "name": "El Tano",
        "food_types": "Argentine, Steakhouses",
        "rating": "4.5"
    },
    {
        "name": "Casaguapa",
        "food_types": "Italian, Steakhouses",
        "rating": "5.0"
    },
    {
        "name": "Mingo",
        "food_types": "Argentine",
        "rating": "4.5"
    },
    {
        "name": "Cosenza",
        "food_types": "Italian",
        "rating": "4.0"
    },
    {
        "name": "Heike",
        "food_types": "Arabic",
        "rating": "5.0"
    },
    {
        "name": "El Federal",
        "food_types": "Diners, Bars",
        "rating": "4.0"
    },
    {
        "name": "Restaurante del Club Chacabuco",
        "food_types": "Diners",
        "rating": "4.5"
    },
    {
        "name": "Patagonia Sur",
        "food_types": "Restaurants",
        "rating": "4.5"
    },
    {
        "name": "Caf\u00e9 San Juan La Cantina",
        "food_types": "Italian, Signature Cuisine",
        "rating": "4.5"
    },
    {
        "name": "Javi\u2019s",
        "food_types": "Steakhouses, Wine Bars",
        "rating": "5.0"
    },
    {
        "name": "Pucar\u00e1",
        "food_types": "Spanish",
        "rating": "4.0"
    },
    {
        "name": "La Vieja Librer\u00eda",
        "food_types": "Tapas Bars",
        "rating": "5.0"
    },
    {
        "name": "Viri Burger",
        "food_types": "Burgers",
        "rating": "3.5"
    },
    {
        "name": "Lo Rafael",
        "food_types": "Restaurants",
        "rating": "4.5"
    },
    {
        "name": "Don Carlos",
        "food_types": "Steakhouses",
        "rating": "5.0"
    },
    {
        "name": "Mizuki",
        "food_types": "Sushi Bars, Japanese, Barbeque",
        "rating": "4.5"
    },
    {
        "name": "Mingo",
        "food_types": "Argentine",
        "rating": "4.5"
    },
    {
        "name": "Casaguapa",
        "food_types": "Italian, Steakhouses",
        "rating": "5.0"
    },
    {
        "name": "1889",
        "food_types": "Argentine",
        "rating": "4.5"
    },
    {
        "name": "Tirifilo el Bodeg\u00f3n",
        "food_types": "Restaurants",
        "rating": "4.0"
    },
    {
        "name": "Broome",
        "food_types": "Cafeteria, Sandwiches",
        "rating": "4.5"
    },
    {
        "name": "Il Bersagliere",
        "food_types": "Italian",
        "rating": "4.0"
    },
    {
        "name": "Vilita",
        "food_types": "Argentine",
        "rating": "4.5"
    },
    {
        "name": "Olika",
        "food_types": "American (Traditional), Burgers",
        "rating": "4.5"
    },
    {
        "name": "Holy Burger",
        "food_types": "Burgers",
        "rating": "3.5"
    },
    {
        "name": "Black & White",
        "food_types": "Pizza, Beer Bar",
        "rating": "4.5"
    },
    {
        "name": "Dolce Vita",
        "food_types": "Steakhouses",
        "rating": "5.0"
    },
    {
        "name": "la Taberna",
        "food_types": "Restaurants",
        "rating": "4.5"
    },
    {
        "name": "Hermes - Tienda de Pizzas",
        "food_types": "Salad, Pizza",
        "rating": "4.5"
    },
    {
        "name": "Salustiana",
        "food_types": "Spanish, Italian",
        "rating": "4.5"
    },
    {
        "name": "Restoran Centro Vasco Jatetxea",
        "food_types": "Basque",
        "rating": "4.0"
    },
    {
        "name": "Bah\u00eda - Churrasqueria",
        "food_types": "Fast Food, Sandwiches",
        "rating": "3.0"
    },
    {
        "name": "La Chacra de Don Rosendo",
        "food_types": "Argentine",
        "rating": "4.5"
    },
    {
        "name": "Monona Ristorante",
        "food_types": "Italian",
        "rating": "4.0"
    },
    {
        "name": "Cuisine Concepts",
        "food_types": "Burgers, Food Stands, Sandwiches",
        "rating": "4.0"
    },
    {
        "name": "Pasta Rossa",
        "food_types": "Italian",
        "rating": "4.5"
    },
    {
        "name": "Veinticinco Restaurant",
        "food_types": "Argentine",
        "rating": "4.0"
    },
    {
        "name": "Don Diego",
        "food_types": "Steakhouses",
        "rating": "4.5"
    },
    {
        "name": "Prego",
        "food_types": "Bistros, Italian, Breakfast & Brunch",
        "rating": "4.0"
    },
    {
        "name": "El Ferroviario",
        "food_types": "Argentine",
        "rating": "4.5"
    },
    {
        "name": "Rinc\u00f3n Espa\u00f1a Restaurant",
        "food_types": "Spanish",
        "rating": "4.0"
    },
    {
        "name": "La Quintana",
        "food_types": "Latin American",
        "rating": "4.0"
    },
    {
        "name": "Bandidos Rurales",
        "food_types": "Latin American",
        "rating": "5.0"
    },
    {
        "name": "Finisterre Social Club",
        "food_types": "Tapas Bars, Seafood, Beer Bar",
        "rating": "4.0"
    },
    {
        "name": "Taco Box",
        "food_types": "Mexican",
        "rating": "4.5"
    },
    {
        "name": "La Fragata",
        "food_types": "Argentine",
        "rating": "4.5"
    },
    {
        "name": "Moom Plaza",
        "food_types": "Argentine",
        "rating": "3.5"
    },
    {
        "name": "La Junta de Haedo",
        "food_types": "Argentine, Barbeque",
        "rating": "5.0"
    },
    {
        "name": "Clandestino Espacio Gastron\u00f3mico",
        "food_types": "Argentine",
        "rating": "5.0"
    },
    {
        "name": "Conrado Restaurante",
        "food_types": "Restaurants",
        "rating": "4.5"
    },
    {
        "name": "Zar",
        "food_types": "Bars, Burgers, Barbeque",
        "rating": "4.0"
    },
    {
        "name": "Zarco",
        "food_types": "Argentine",
        "rating": "4.0"
    },
    {
        "name": "El Fauno",
        "food_types": "Steakhouses",
        "rating": "3.5"
    },
    {
        "name": "Tok Wouk",
        "food_types": "Asian Fusion",
        "rating": "4.0"
    },
    {
        "name": "La Parrilla de Coco",
        "food_types": "Steakhouses",
        "rating": "4.0"
    },
    {
        "name": "Gardenias",
        "food_types": "Breakfast & Brunch, Diners, Cafeteria",
        "rating": "4.0"
    },
    {
        "name": "Restaurante Guadalupe",
        "food_types": "Mediterranean",
        "rating": "5.0"
    },
    {
        "name": "Del Carmen",
        "food_types": "Bars, Tapas Bars",
        "rating": "5.0"
    },
    {
        "name": "La Guisera",
        "food_types": "Breakfast & Brunch",
        "rating": "4.5"
    },
    {
        "name": "Justo Brandzen",
        "food_types": "Bars, International",
        "rating": "4.5"
    },
    {
        "name": "Hummus Quilmes",
        "food_types": "Arabic, Middle Eastern",
        "rating": "4.0"
    },
    {
        "name": "El Almac\u00e9n",
        "food_types": "Dive Bars, Diners",
        "rating": "3.5"
    },
    {
        "name": "Un Tano y Dos Gallegos",
        "food_types": "Steakhouses",
        "rating": "4.0"
    },
    {
        "name": "Se\u00f1or Gomez",
        "food_types": "Steakhouses",
        "rating": "4.0"
    },
    {
        "name": "Los Gallegos",
        "food_types": "Argentine, Latin American",
        "rating": "4.0"
    },
    {
        "name": "3 Dragones",
        "food_types": "Chinese, Sushi Bars",
        "rating": "4.0"
    },
    {
        "name": "Tierradentro",
        "food_types": "Signature Cuisine",
        "rating": "5.0"
    },
    {
        "name": "La Tanita Pastas",
        "food_types": "Italian",
        "rating": "3.5"
    },
    {
        "name": "La Guardia Pastas",
        "food_types": "Italian",
        "rating": "5.0"
    },
    {
        "name": "El Parque de la Cervecer\u00eda",
        "food_types": "Cafeteria",
        "rating": "4.0"
    },
    {
        "name": "Vinsanto",
        "food_types": "Italian",
        "rating": "3.5"
    },
    {
        "name": "El Gaucho",
        "food_types": "Argentine",
        "rating": "5.0"
    },
    {
        "name": "Palo Santo",
        "food_types": "Vegetarian",
        "rating": "4.0"
    },
    {
        "name": "La Parrillita",
        "food_types": "Steakhouses, Argentine",
        "rating": "4.5"
    },
    {
        "name": "Arist\u00f3bulo",
        "food_types": "Steakhouses, Diners",
        "rating": "3.0"
    },
    {
        "name": "Obsoleto Road on Beer",
        "food_types": "Pizza, Beer Bar, Tapas Bars",
        "rating": "4.0"
    },
    {
        "name": "Truman",
        "food_types": "Argentine",
        "rating": "4.5"
    },
    {
        "name": "Grupo los Negros",
        "food_types": "Restaurants",
        "rating": "3.5"
    },
    {
        "name": "La Corzuela",
        "food_types": "Argentine, Steakhouses",
        "rating": "5.0"
    },
    {
        "name": "Sara Figueroa",
        "food_types": "Empanadas, Argentine",
        "rating": "5.0"
    },
    {
        "name": "Il Postino",
        "food_types": "Italian",
        "rating": "4.0"
    },
    {
        "name": "El Portal",
        "food_types": "Argentine",
        "rating": "5.0"
    },
    {
        "name": "Parrilla La Criolla",
        "food_types": "Argentine",
        "rating": "4.0"
    },
    {
        "name": "Callate G\u00fcey",
        "food_types": "Tex-Mex",
        "rating": "3.0"
    },
    {
        "name": "El Shami",
        "food_types": "Arabic",
        "rating": "4.0"
    },
    {
        "name": "Bona Resto",
        "food_types": "Argentine",
        "rating": "5.0"
    },
    {
        "name": "Setimio",
        "food_types": "Wine Bars, Italian, Argentine",
        "rating": "3.5"
    },
    {
        "name": "Mirasoles",
        "food_types": "Bars, Argentine",
        "rating": "4.0"
    },
    {
        "name": "Porter Brew House",
        "food_types": "Beer Bar, Argentine",
        "rating": "2.5"
    },
    {
        "name": "Amelie",
        "food_types": "Coffee & Tea, Patisserie/Cake Shop, Breakfast & Brunch",
        "rating": "4.0"
    },
    {
        "name": "La Cocina de Belfast",
        "food_types": "Tapas Bars",
        "rating": "4.0"
    },
    {
        "name": "La Oficina Bar",
        "food_types": "Pizza, Cafeteria",
        "rating": "5.0"
    },
    {
        "name": "Doppio Zero",
        "food_types": "Italian",
        "rating": "4.0"
    },
    {
        "name": "Tarantino",
        "food_types": "Cafeteria, American (Traditional), Argentine",
        "rating": "5.0"
    },
    {
        "name": "Mc Donald's",
        "food_types": "Burgers, Fast Food",
        "rating": "4.0"
    },
    {
        "name": "Aloha Tienda & Caf\u00e9",
        "food_types": "Cafeteria, Home Decor",
        "rating": "3.5"
    },
    {
        "name": "Peel St",
        "food_types": "Australian",
        "rating": "4.5"
    },
    {
        "name": "Crack Kitchen",
        "food_types": "Cafes, Breakfast & Brunch, Coffee & Tea",
        "rating": "4.5"
    },
    {
        "name": "The Collins Bar",
        "food_types": "Bars, Restaurants",
        "rating": "4.5"
    },
    {
        "name": "Bread & Bone Wood Grill",
        "food_types": "American (Traditional), Coffee & Tea",
        "rating": "4.0"
    },
    {
        "name": "Mamachau",
        "food_types": "Asian Fusion, Fast Food, Korean",
        "rating": "4.5"
    },
    {
        "name": "Press Food & Wine",
        "food_types": "Restaurants",
        "rating": "4.5"
    },
    {
        "name": "Panacea",
        "food_types": "Middle Eastern",
        "rating": "4.0"
    },
    {
        "name": "Treasury 1860",
        "food_types": "Bars, Cafes, Modern Australian",
        "rating": "5.0"
    },
    {
        "name": "Sneaky Pickle",
        "food_types": "Food Trucks, American (Traditional), Sandwiches",
        "rating": "5.0"
    },
    {
        "name": "La Trattoria",
        "food_types": "Italian, Pizza",
        "rating": "3.5"
    },
    {
        "name": "Argo On The Square",
        "food_types": "Coffee & Tea, Breakfast & Brunch",
        "rating": "4.0"
    },
    {
        "name": "Hound Hut",
        "food_types": "Seafood, Hot Dogs",
        "rating": "4.0"
    },
    {
        "name": "Kl Teppanyaki",
        "food_types": "Teppanyaki",
        "rating": "5.0"
    },
    {
        "name": "Revoluci\u00f3n Mexicana",
        "food_types": "Mexican, Gluten-Free",
        "rating": "5.0"
    }
]